<svg xmlns="http://www.w3.org/2000/svg" width="183" height="57">
  <g fill="none" fill-rule="evenodd">
    <path d="M64.233 45.937c.012-1.09-.801-1.387-1.686-1.902-.714-.416-1.246-.78-1.246-1.608v-5.971c4.057 1.377 17.353 3.813 27.46 2.225 15.325-2.408 24.817-1.846 25.241-.803.543 1.334-5.59.073-18.657 10.342-9.811 7.711-23.702 10.096-31.112 7.119v-9.402" fill="#0C9BD1"/>
    <path d="M17.32 20.128c-.943-1.507 10.673-2.908 18.985-1.943 7.967.775 14.455 1.93 19.662 2.668v6.209c0 .824-.459 1.129-1.328 1.738-.695.487-1.674.912-1.674 1.739v10.462c0 .825-.841 1.348-1.541 1.791-.736.467-1.457.827-1.457 1.653v5.556c-10.892-5.738-10.979-12.449-18.492-20.902-5.723-6.439-13.676-7.967-14.155-8.971M81.8 9.475c0 2.736-2.232 4.608-5.328 4.608-.684 0-1.26-.036-1.584-.072l1.332-7.02c.468-.072 1.224-.108 2.088-.108 2.448 0 3.492.9 3.492 2.592zm4.896-.864c0-3.528-2.34-5.544-7.632-5.544-2.592 0-4.824.036-6.732.144l-4.608 24.3h4.608l1.908-10.044h.36l4.536 10.044h5.4l-3.96-7.992c-.432-.9-.864-1.8-1.296-2.664 4.284-.972 7.416-3.924 7.416-8.244zM103.292 27.511h-4.536l2.16-11.232c.432-2.196.071-3.096-1.08-3.096-2.413 0-5.652 5.616-6.444 9.792l-.864 4.536h-4.5l5.003-26.28h4.5l-1.403 7.56c-.325 1.584-.865 3.384-1.944 6.372l.072.036c1.62-3.204 4.103-5.976 7.523-5.976 3.456 0 4.5 2.448 3.853 5.94l-2.34 12.348M120.211 14.227c0 1.908-2.16 2.772-6.3 2.916.648-2.34 2.124-4.5 4.464-4.5 1.152 0 1.836.576 1.836 1.584zm4.464-.612c0-2.16-1.368-4.356-5.796-4.356-5.58 0-10.116 5.076-10.116 12.564 0 3.96 1.8 6.048 6.336 6.048 2.376 0 4.716-.396 6.732-1.152l-.072-3.528c-1.656.684-3.456 1.08-5.184 1.08-2.484 0-3.276-.612-3.276-2.664 0-.396.072-1.008.108-1.404 7.02-.216 11.268-2.304 11.268-6.588zM141.595 27.511h-4.536l2.16-11.232c.432-2.196.072-3.096-1.08-3.096-2.412 0-5.652 5.616-6.445 9.792l-.863 4.536h-4.5l1.8-9.36c.324-1.656 1.295-6.912 1.548-8.532h4.428c-.216 1.08-.648 2.736-1.62 5.544l.072.036c1.62-3.204 4.104-5.976 7.524-5.976 3.456 0 4.5 2.448 3.852 5.94l-2.34 12.348M158.514 14.227c0 1.908-2.16 2.772-6.3 2.916.648-2.34 2.124-4.5 4.464-4.5 1.152 0 1.836.576 1.836 1.584zm4.464-.612c0-2.16-1.368-4.356-5.796-4.356-5.58 0-10.116 5.076-10.116 12.564 0 3.96 1.8 6.048 6.337 6.048 2.375 0 4.715-.396 6.731-1.152l-.072-3.528c-1.656.684-3.456 1.08-5.183 1.08-2.485 0-3.277-.612-3.277-2.664 0-.396.072-1.008.108-1.404 7.02-.216 11.268-2.304 11.268-6.588zM179.898 27.511h-4.536l2.16-11.232c.432-2.196.072-3.096-1.08-3.096-2.412 0-5.652 5.616-6.444 9.792l-.864 4.536h-4.5l1.8-9.36c.324-1.656 1.296-6.912 1.548-8.532h4.428c-.216 1.08-.648 2.736-1.62 5.544l.072.036c1.62-3.204 4.104-5.976 7.524-5.976 3.456 0 4.5 2.448 3.852 5.94l-2.34 12.348" fill="#00633B"/>
    <path d="M5.95 3.556l-.098.56c-.322 1.666-1.75 4.452-3.066 4.452-.434 0-.714-.364-.714-1.274 0-1.722.812-3.864 2.884-3.864.392 0 .714.056.994.126zm1.4-.91a11.448 11.448 0 00-2.184-.21C2.142 2.436.798 4.97.798 7.532c0 1.47.546 2.114 1.554 2.114 1.694 0 2.744-1.904 3.22-2.912H5.6c-.476 1.498-.644 2.044-.84 3.108-.308 1.582-1.162 2.142-2.604 2.142-.644 0-1.33-.14-1.862-.392L0 12.81c.518.168 1.106.266 1.876.266 2.66 0 3.724-1.26 4.046-2.926L7.35 2.646zM13.189 4.158c0 .84-.952 1.274-3.108 1.359.322-1.177 1.064-2.143 2.17-2.143.56 0 .938.28.938.784zm1.246-.154c0-.826-.56-1.582-2.044-1.582-2.296 0-3.808 2.254-3.808 4.956 0 1.568.742 2.254 2.338 2.254.91 0 1.722-.154 2.422-.434l-.042-.98a5.361 5.361 0 01-1.946.392c-1.12 0-1.498-.28-1.498-1.358 0-.252.028-.602.07-.812 2.982-.112 4.508-.938 4.508-2.436zM25.271 9.506h-1.246l.854-4.452c.21-1.092.014-1.582-.56-1.582-1.12 0-2.604 2.31-3.01 4.466l-.294 1.568h-1.232l.854-4.452c.21-1.092.028-1.582-.574-1.582-1.106 0-2.59 2.31-2.996 4.466l-.294 1.568h-1.232l.7-3.626c.056-.321.56-3.024.616-3.332h1.218c-.084.462-.28 1.274-.77 2.744h.028c.644-1.456 1.736-2.884 3.164-2.884.896 0 1.4.49 1.4 1.359 0 .433-.112.839-.336 1.539l.028.014c.644-1.498 1.736-2.912 3.164-2.912 1.26 0 1.694.91 1.414 2.366l-.896 4.732M32.481 4.158c0 .84-.952 1.274-3.108 1.359.322-1.177 1.064-2.143 2.17-2.143.56 0 .938.28.938.784zm1.246-.154c0-.826-.56-1.582-2.044-1.582-2.296 0-3.808 2.254-3.808 4.956 0 1.568.742 2.254 2.338 2.254.91 0 1.722-.154 2.422-.434l-.042-.98a5.361 5.361 0 01-1.946.392c-1.12 0-1.498-.28-1.498-1.358 0-.252.028-.602.07-.812 2.982-.112 4.508-.938 4.508-2.436zM39.439 4.158c0 .84-.952 1.274-3.108 1.359.322-1.177 1.064-2.143 2.17-2.143.56 0 .938.28.938.784zm1.246-.154c0-.826-.56-1.582-2.044-1.582-2.296 0-3.808 2.254-3.808 4.956 0 1.568.742 2.254 2.337 2.254.911 0 1.723-.154 2.423-.434l-.042-.98a5.361 5.361 0 01-1.946.392c-1.12 0-1.498-.28-1.498-1.358 0-.252.028-.602.07-.812 2.982-.112 4.508-.938 4.508-2.436zM47.349 9.506h-1.232l.853-4.452c.211-1.092.014-1.568-.615-1.568-1.289 0-2.716 2.73-3.038 4.452l-.294 1.568h-1.232l.7-3.626c.055-.321.559-3.024.616-3.332h1.218c-.085.462-.28 1.261-.77 2.744h.028c.657-1.47 1.764-2.884 3.219-2.884 1.288 0 1.722.91 1.456 2.366l-.909 4.732M54.348 3.528h-1.89l-.686 3.64c-.196 1.079-.056 1.372.63 1.372.392 0 .687-.042.966-.112l-.084 1.05a6.86 6.86 0 01-1.302.14c-1.428 0-1.792-.672-1.498-2.254l.742-3.836h-1.414l.196-.98h1.4l.434-2.254L53.144 0l-.49 2.548h1.89l-.196.98M59.794 4.158c0 .84-.952 1.274-3.108 1.359.322-1.177 1.064-2.143 2.17-2.143.56 0 .938.28.938.784zm1.246-.154c0-.826-.56-1.582-2.044-1.582-2.296 0-3.808 2.254-3.808 4.956 0 1.568.742 2.254 2.339 2.254.909 0 1.721-.154 2.421-.434l-.042-.98a5.361 5.361 0 01-1.946.392c-1.12 0-1.498-.28-1.498-1.358 0-.252.028-.602.07-.812 2.982-.112 4.508-.938 4.508-2.436z" fill="#0097CF"/>
  </g>
</svg>