<?xml version="1.0" encoding="utf-8"?>
<!-- Generator: Adobe Illustrator 25.3.0, SVG Export Plug-In . SVG Version: 6.00 Build 0)  -->
<svg version="1.1" id="Ñëîé_1" xmlns="http://www.w3.org/2000/svg" xmlns:xlink="http://www.w3.org/1999/xlink" x="0px" y="0px"
	 viewBox="0 0 6677.6816406 1015.7415771" style="enable-background:new 0 0 6677.6816406 1015.7415771;" xml:space="preserve">
<style type="text/css">
	.st0{fill:#E61303;}
	.st1{fill:#1A1A1A;}
</style>
<g>
	<g>
		<path class="st0" d="M299.0798035,448.7771912c-16.563446,2.8297424-32.1242371,9.0338745-47.8829956,14.4860229
			c-17.4629059,6.041626-34.4694214,13.2620239-51.0594177,21.4404297c-1.7038269,0.8399658-3.2938995,2.440979-6.1286469,1.5742188
			c0.5855865-21.2506104,5.0113678-41.8659363,12.8421173-61.6598511
			c23.5924072-59.6349487,66.4191589-101.8442688,121.4167786-132.8301697
			c5.6472778-3.1816711,11.4706421-6.072052,17.3341064-8.8395386c2.7095032-1.2788696,3.9836731-2.3457336,2.342926-5.5640259
			c-2.6086121-5.1165771-4.4535217-10.5816956-5.5863647-16.2436218
			c-1.0759583-5.3777008-2.0924683-10.7673798-3.2645874-16.8205109
			c-7.7303467,3.3797302-15.3852539,6.8334961-23.1239624,10.088089
			c-17.409668,7.3218994-35.2402954,12.8820801-54.4647522,11.5338135
			c-21.8730164-1.5339355-40.0884094-10.3482971-52.875351-28.4880371
			c-10.174118-14.4330902-11.4814758-30.1049194-3.6934204-46.1205597
			c3.1531525-6.4842529,7.9182739-11.4166565,15.9465942-12.4916992
			c-0.1864319,26.7571106,12.605957,44.7355499,36.623703,54.9175568
			c15.7683411,6.6847229,31.3700562,3.9711761,46.7073364-1.9405518
			c11.63974-4.4865723,22.8432617-10.0740356,34.8201904-13.7170105
			c18.2026062-5.5365295,36.3112183-6.7778931,54.2086182,1.1339111
			c12.3066101,5.4402924,17.8599548,12.7540588,17.7911072,23.6369934
			c-13.5162659-6.9525452-27.6827393-10.1048584-42.7239075-8.6582794
			c-2.6527405,0.2550812-6.1938477-0.0799408-7.2622986,2.4712982c-0.9381104,2.2399445,1.8830261,4.3815918,3.3648987,6.3071899
			c15.6272583,20.3069763,45.901062,23.1741638,67.0049744,6.4154968
			c19.1847839-15.2346497,22.2680969-42.4691925,6.9678345-61.5460052
			c-16.4429626-20.5016479-47.2087402-23.3901367-67.8099976-6.3226624
			c-5.658905,4.6882477-10.5584106,10.1023254-12.7316284,17.2569733c-1.2127686,3.9925385-3.4569702,4.2100372-6.7767944,3.4545288
			c-18.905365-4.3022156-34.3317871-12.6544189-41.4046021-32.4297485
			c-3.95578-11.0603485-8.0876465-22.0052185-10.4825439-33.5309906c-0.456604-2.1976013-0.8353882-4.451416-1.6349182-6.5313263
			c-5.5516052-14.4414902,0.3934326-26.8060455,15.1473694-30.2869034
			c3.9815979-0.9393692,7.5588684-2.3815231,11.0930786-4.2047043
			c30.6897278-15.8315353,64.0431519-23.6542969,97.1098938-32.3569679
			c34.0877991-8.9714203,68.0749512-18.2863922,98.2694092-37.4253578C530.4714355,18.3182392,541.6682129,10.9072704,549.9182739,0
			c2.0018311,0,4.00354,0,6.0053101,0c15.9874268,17.764019,27.8651123,38.2912369,38.8991089,59.2485847
			c34.1461792,64.8551941,49.5673828,133.8292389,41.890564,206.9783173
			c-5.8659668,55.89328-20.663208,108.9536438-57.4194946,153.5384216
			c-9.4154053,11.4207153-20.0496216,21.5862427-31.3320923,31.1551208
			c-3.4161377,2.8973694-5.6850586,2.8999329-8.8727417,0.0273132c-4.2932739-3.8689575-8.6343994-7.718689-11.6172485-12.6662598
			c-2.4620361-4.0838318-4.9542236-5.0705261-9.7306519-3.5109863c-15.2911987,4.9925842-15.3167725,4.7134705-5.0107422,17.4681091
			c12.973938,16.0562744,30.8493042,25.0983582,48.6997681,34.1433716
			c27.8445435,14.1092224,55.9987183,27.6724548,80.534668,47.3959045c0.1949463,0.1567993,0.3970947,0.3053589,0.5844116,0.4707031
			c16.8984985,14.923584,33.2359009,29.9761353,53.6409912,41.0087891
			c19.4979248,10.5421143,31.6499023,29.3587036,35.6300049,52.2197266
			c0.9356079,5.3736572,4.0477905,9.5984497,8.6431274,12.6662598
			c23.8898315,15.9484253,55.0457764,2.1593018,58.7888184-26.0668945
			c3.4310303-25.8736572-3.1355591-50.1445923-12.7785645-73.6601562
			c-17.3410034-42.287262-34.2693481-84.6921997-45.0021973-129.2585449
			c-9.364563-38.8843079-14.3445435-78.0591736-8.6988525-118.1238708c6-42.5807037,24.0950928-78.9989777,54.5072632-109.235199
			c6.6094971-6.5713654,10.0959473-13.9496307,10.6945801-23.127594c0.6030273-9.2450867,1.7188721-18.4536438,8.0496216-26.4342041
			c3.3848877,4.2395325,4.6608887,9.3195496,6.5721436,14.0201263c1.6519775,4.0630035,3.0219116,5.8741302,8.0485229,3.7277679
			c12.7911377-5.4619141,12.9140015-5.1321259,7.4031982-18.0518799c-2.0570068-4.8221588-4.1246948-9.6443329-5.9899902-14.5417023
			c-0.9074707-2.3824539-2.8822632-4.7874451,0.0095215-7.4320908c3.7228394-3.4046326,7.5756226-6.7782974,12.4050293-8.0935669
			c1.9669189-0.5356903,2.5688477,2.8894653,2.9550171,4.6337357c1.7421265,7.8673325,5.9074097,8.6896362,12.0894775,4.6586914
			c0.2053223-0.1338882,0.4476318-0.2457657,0.6867676-0.2883301c8.0404053-1.4308243,10.2978516-5.4657288,5.704834-12.6124878
			c-2.5331421-3.9415283-0.9494019-5.8773346,3.2106323-6.5522842c0.9857178-0.1599274,1.9645996-0.5134125,2.9471436-0.5151138
			c5.3422241-0.0092163,11.8703613-2.3961716,15.2108765,3.1714401c2.9207764,4.868042-2.553772,8.5870743-4.8415527,12.3969193
			c-8.352417,13.9084854-14.3583374,28.6149597-15.7008667,44.8504181
			c-0.5443726,6.5842438-3.3540649,11.0893555-8.4082031,15.0279236
			c-14.0128174,10.920105-27.4468994,22.5209961-39.7791138,35.3538513
			c-29.8094482,31.0199738-43.8395386,68.4306641-45.7927856,111.0317383
			c-2.1547852,46.9964905,10.2258911,91.0172119,26.8451538,134.1455383
			c12.1099243,31.4262085,25.413269,62.3954163,37.3447876,93.8864746
			c9.9085083,26.1516724,15.1825562,53.2955322,12.9667358,81.5134888
			c-3.104187,39.5339966-26.7194824,64.0407715-66.2998047,69.0744019
			c-14.6395874,1.8619385-28.9917603,1.2375488-42.7615356-4.2263184c-4.6140747-1.8308716-6.374939-0.704834-8.4089355,3.4351807
			c-16.2825928,33.1397095-17.2996216,67.3134766-6.8135376,102.1053467
			c8.2227173,27.2822266,22.8466797,50.9295654,42.7259521,71.3104858
			c9.9307251,10.1811523,11.0598755,16.9989624,3.7791748,29.2791138
			c-7.5437012,12.7235107-17.2370605,23.9274902-26.3253784,35.5266724
			c-23.171875,29.5737915-47.2391968,58.295166-78.5814209,79.8934937
			c-4.7624512,3.2819214-9.4650879,4.8192139-15.2636108,4.7746582
			c-28.5198364-0.2192993-57.0422974-0.0720215-85.5636597-0.1129761
			c-16.4865112-0.0236206-25.9840698-15.8482056-18.3965454-30.5435791
			c10.3889771-20.1213989,33.6075439-30.394165,55.5648193-24.5502319
			c3.8604126,1.0274048,7.8227539,1.8540039,11.5003662,3.3555298c17.4257202,7.1148682,31.4673462,2.2705688,43.5516968-11.3666382
			c8.1500854-9.1973877,15.5998535-18.8182373,22.0871582-29.272522c2.5375977-4.0892944,1.8892822-5.6090698-2.2094116-7.7070312
			c-17.3309937-8.8707275-34.4360962-18.1520386-51.1693726-28.1473389
			c-50.8546143-30.3770752-78.8792725-75.7841187-88.3098755-133.4412842
			c-2.0546265-12.5613403-4.0898438-25.2631836-4.3742065-37.9398193
			c-0.3120117-13.9121704-7.0351562-22.3152466-18.6711426-28.1081543
			c-21.8099365-10.8580322-45.2315369-17.1777344-68.3703308-24.2736206
			c-29.5470581-9.0611572-58.1383362-19.9944458-81.7616882-40.8612671
			c-8.2339172-7.2731323-15.9061584-15.0772705-22.4682617-24.663147
			c16.0980225-5.3474731,31.1107483-11.9499512,45.7831421-19.3939209c3.9892578-2.0239258,4.2993774-3.324646,1.5546265-6.8751221
			c-8.3268127-10.7709961-8.1890869-10.9473267-20.3096619-5.2319946
			c-33.3351746,15.718811-68.9662781,23.2252197-104.9621124,29.4395142
			c-26.8261414,4.6312256-53.5960693,9.5251465-80.0037384,16.2314453
			c-12.7077789,3.2271729-24.4489594,8.5273438-35.5592346,15.4545898
			c-16.9386826,10.5612183-33.2101364,22.2759399-51.6172714,30.3389282
			c-8.73246,3.8251343-17.6518707,7.0144043-27.3041878,7.4835205c-1.7366371,0.0844727-3.5331993,0.2776489-5.2135963-0.0431519
			c-10.1168327-1.9310303-20.3388367-5.1052246-29.2310791-9.2788696
			c-9.1320248-4.2861328-16.5110092-13.548645-22.9691944-21.9334106
			c-6.1743388-8.0162964-3.8372173-20.3130493,3.6569171-27.3965454c3.5701861-3.3745117,5.847815-6.9966431,7.4261432-11.6643066
			c2.5026674-7.4013672,8.1440554-12.3626099,15.0209589-16.0057983
			c10.0746098-5.3372803,21.0346546-7.7478027,32.0352859-10.0974731c1.8249283-0.3897705,4.0642166,0.3276978,5.1799698-2.1192017
			c4.6706924-10.2434692,14.1944733-11.0186157,23.0006714-9.5966187
			c11.3646698,1.8352661,20.5590515-1.7141113,29.7019806-7.284668
			c41.6427307-25.3720093,84.6233063-48.1176453,130.0901794-65.9402161
			c6.6504364-2.6069336,13.4377289-4.8647766,21.6050873-7.8034973c-2.6375732,8.4619446-4.8197632,15.4629822-7.4602356,23.9341431
			c39.8042603-14.2868042,79.8537903-23.5899658,120.9231873-32.6684875
			c-2.2457581,7.2681274-4.1351318,13.3829346-6.1343994,19.8533325c3.7669983,1.4317322,6.9593201-0.3709412,10.1582947-1.0793152
			c20.9689941-4.6434021,41.8759766-9.5753174,62.8898926-14.0014343c5.2965088-1.115509,8.3522949-3.3546143,9.4967041-8.6826477
			c0.9277344-4.319397,2.4698486-8.5068665,4.1347656-14.0750732c-19.828949,4.4726868-38.6156311,8.7103271-58.1194763,13.1097107
			c1.8901672-7.0074768,3.5497742-13.1602478,5.2064209-19.3156433c0.6200256-0.5052795,0.778656-1.0689392,0.0477295-1.5565491
			c-0.1003723-0.0669556-0.5868225,0.4448853-0.8945312,0.6887512
			c-29.0188293,4.7199402-57.5238647,11.8052979-86.0420532,18.806366
			c-10.3210754,2.533783-20.5307007,5.5216675-31.6437378,8.5334473c2.1078491-7.3869324,3.9793701-13.9455566,5.8468628-20.508606
			c0.7252502-0.4231262,0.6833496-0.9067078,0.1163635-1.4345703
			C299.5481873,448.2558289,299.3139954,448.5164795,299.0798035,448.7771912z M542.0009766,85.2857513
			c-13.5061646,0.3127365-23.7301636,6.8165665-31.8283997,17.1204453
			c-8.4421387,10.7414246-8.2442017,10.6183853,3.3809509,17.4251556c4.102356,2.4020767,6.3682861,2.078476,9.0905762-1.7479706
			c3.3329468-4.6846313,7.5328979-8.6848907,12.6871948-11.4373398c8.3578491-4.4631424,16.1567993-2.3297043,22.1270752,5.924408
			c6.1550903,8.5097275,5.8418579,16.1014252-0.9926147,22.8792114c-4.7205811,4.6814575-10.6606445,7.3208771-16.7061768,9.7258911
			c-1.8773804,0.7468414-3.4987793,1.0330505-3.4802856,3.8820801c0.0858154,13.2124176,4.0919189,16.122345,16.5230103,11.5871735
			c1.4028931-0.5118103,2.8066406-1.0407562,4.1563721-1.6757355c17.5745239-8.2680511,27.7227783-25.9522247,24.2541504-42.223732
			C577.5891724,99.7468109,559.4611816,85.2076797,542.0009766,85.2857513z M417.5553284,125.2192612
			c5.0805054,1.707962,7.9797058-1.0585022,8.3796082-6.0799103c0.4294128-5.3927536,3.6612854-6.3883896,7.9816589-6.504425
			c3.4952393-0.0938721,7.0055542-0.0106277,10.4811401-0.3208389c2.4820251-0.2215271,6.3372498,1.9510117,6.2844849-3.5173264
			c-0.0375366-3.8845825-0.2689819-6.3503036-5.2052002-7.0614624c-14.9414978-2.1526337-29.7715149-2.4005356-44.7163086-0.1054001
			c-4.4020691,0.6760483-6.6881409,1.7699051-6.4475708,6.8248825c0.2046204,4.2983627-0.1286316,7.7290726,5.8652954,7.6744614
			c3.180481-0.0289764,6.7256165,1.6614532,8.0762024,4.7480316
			C410.1316528,125.1668015,413.0070496,126.1963882,417.5553284,125.2192612z"/>
		<path class="st0" d="M375.6272278,1015.6414795c-12.7592163-0.0014648-25.5187683,0.0604858-38.2775269-0.0167847
			c-16.7515869-0.1015625-26.8547668-15.8175659-19.9008484-30.8477173
			c10.2581482-22.1719971,36.0758362-32.9150391,59.0065918-24.5689087c2.5805359,0.9393311,5.210968,1.741272,7.7928467,2.677002
			c14.7454834,5.3442383,27.3499451,2.194519,38.2839966-9.0559692
			c12.8315735-13.2028809,22.075592-28.989563,32.4988403-43.9412231c2.7792664-3.9864502-0.7255554-5.3545532-2.5837708-7.164978
			c-15.4044189-15.0081787-30.9663086-29.8605957-44.3917236-46.7432251
			c-20.2490845-25.463501-35.1173096-53.4643555-39.0080872-86.2323608
			c-4.0725098-34.2977295,3.2618103-65.5099487,26.2460938-92.3026733c3.9550171-4.6103516,7.1460266-5.744873,13.2304382-3.5856323
			c19.9784546,7.0899658,40.2828064,13.2624512,60.4692383,19.7647705c3.183075,1.0254517,5.9657898,2.1569214,6.640686,6.1318359
			c2.1108093,12.4318848,10.2704468,19.0958252,22.0224609,21.5083008c5.2825928,1.0844116,7.536499,3.4375,8.0016174,8.8352051
			c2.3932495,27.7711182,8.2635498,54.777771,18.6814575,80.7085571c0.8895264,2.2139893,0.9040527,4.0406494-0.6026001,6.2086182
			c-8.7564087,12.6004028-6.5737915,24.9801636,1.2520142,37.0549927
			c4.2322998,6.5300903,9.4174194,12.2938232,14.8774414,17.8164062c3.8832397,3.9278564,5.5203857,8.2185059,2.3461304,13.4473267
			c-24.3824463,40.1651001-51.712677,77.9344482-88.457428,107.937439
			c-27.0748596,22.1071167-28.3224487,22.3705444-71.3730164,22.3705444
			C380.1304626,1015.6430054,377.8788452,1015.6430054,375.6272278,1015.6414795z"/>
		<path class="st0" d="M186.8455963,422.4049988c-20.6865997-17.0358582-40.5416107-33.343811-60.3470535-49.7117004
			c-14.0851746-11.6404419-27.2288589-24.2850342-39.6431961-37.6848145
			c-5.5725479-6.0148926-10.9247589-11.9833374-18.8056946-15.5019226
			c-6.3445129-2.8326721-11.5737991-7.8248901-15.8884735-13.453125c-2.0040436-2.6141052-4.5621758-6.3926392-2.2278366-8.7964172
			c4.5651283-4.7009583,0.3705406-6.5549316-1.7389488-9.3713379c-8.3539429-11.1533508-17.8157578-21.770752-17.8190556-36.9676971
			c-0.0005722-2.6769867-1.3443775-4.7320862-3.5047722-6.3023224c-6.6701775-4.8480835-9.2741013-11.4928131-8.6845093-19.589859
			c0.1072807-1.4731903,0.4042187-3.7763519-0.3736115-4.3442688c-12.6796007-9.2581024-3.0895357-25.8527832-12.2515926-36.557785
			c-3.3538513-3.9186859,0.290329-8.3337555,4.3838453-11.1759644c17.2165298-11.9537506,36.9645119-9.4075928,51.7829399,7.0267029
			c16.6898575,18.5097198,25.4478531,41.1096649,31.3759384,64.7190704
			c4.1167679,16.3956757,13.619545,27.381485,28.215004,34.7178802c3.5625,1.7907104,7.0968246,3.7828064,10.8651047,4.995697
			c28.9844666,9.3292236,55.318634,23.9609985,81.021637,39.9384155
			c6.1378326,3.8153687,12.4939423,7.3595581,19.0345001,10.4195862c4.565094,2.1357422,4.5242157,3.5568848,1.29776,7.2396851
			C213.0897675,365.3447266,197.2723999,391.468811,186.8455963,422.4049988z"/>
	</g>
	<g>
		<path class="st1" d="M1529.3381348,703.916748c-22.5102539,8.0831909-66.9490967,21.3560181-119.4710693,21.3560181
			c-58.8691406,0-107.3494873-15.0026855-145.4411621-51.3614502
			c-33.4746094-32.3202515-54.2519531-84.2666626-54.2519531-144.8687134
			c0.5787354-116.0082397,80.2219238-200.8473816,210.6604004-200.8473816c45.0144043,0,80.2220459,9.8130798,96.9608154,17.8962402
			l-12.121582,40.9759216c-20.7773438-9.2343445-46.7506104-16.7388306-85.996582-16.7388306
			c-94.6522217,0-156.4053955,58.8721619-156.4053955,156.4054565c0,98.6906738,59.4445801,156.9841309,150.0583496,156.9841309
			c32.8989258,0,55.4061279-4.6171875,66.9490967-10.3855591V557.3244019h-79.0708008v-40.3972168h128.1298828V703.916748z"/>
		<path class="st1" d="M1635.5426025,590.802063c1.1542969,68.6790161,45.0175781,96.9608154,95.8065186,96.9608154
			c36.3587646,0,58.293457-6.3533325,77.3377686-14.4302979l8.6588135,36.3587646
			c-17.8931885,8.0769653-48.4804688,17.3113403-92.9223633,17.3113403c-85.99646,0-137.361084-56.557373-137.361084-140.8178101
			c0-84.2666626,49.6346436-150.637085,131.0140381-150.637085c91.1862793,0,115.4295654,80.2219849,115.4295654,131.5896606
			c0,10.3855591-1.1574707,18.468689-1.7330322,23.6646118H1635.5426025z M1784.4467773,554.4370728
			c0.5786133-32.3202515-13.2729492-82.5305481-70.4121094-82.5305481c-51.364502,0-73.8748779,47.3230286-77.9163818,82.5305481
			H1784.4467773z"/>
		<path class="st1" d="M1896.4227295,517.4996338c0-28.854248-0.5787354-52.5188599-2.3085938-75.6047668h44.4387207
			l2.3085938,45.0144043h1.7330322c15.5814209-26.5456848,41.5546875-51.3614807,87.7264404-51.3614807
			c38.0887451,0,66.9490967,23.085907,79.067749,55.9786377h1.1542969
			c8.6555176-15.5814209,19.6230469-27.703064,31.1660156-36.3587341
			c16.7355957-12.6941223,35.2043457-19.6199036,61.7563477-19.6199036c36.9372559,0,91.7648926,24.2370911,91.7648926,121.197876
			V721.234314h-49.6347656V563.098938c0-53.676239-19.6230469-85.996521-60.598877-85.996521
			c-28.8605957,0-51.3676758,21.3560181-60.0234375,46.171814c-2.3085938,6.9257812-4.0415039,16.1601562-4.0415039,25.3944702
			V721.234314h-49.6347656V553.864624c0-44.441925-19.6230469-76.762207-58.293457-76.762207
			c-31.7415771,0-54.8275146,25.3945007-62.9075928,50.7890015c-2.8841553,7.5044556-4.0415039,16.1600952-4.0415039,24.8157959
			V721.234314h-49.6315918V517.4996338z"/>
		<path class="st1" d="M2406.064209,590.802063c1.1542969,68.6790161,45.0175781,96.9608154,95.8066406,96.9608154
			c36.3586426,0,58.293457-6.3533325,77.3376465-14.4302979l8.6586914,36.3587646
			c-17.8930664,8.0769653-48.4802246,17.3113403-92.9221191,17.3113403c-85.996582,0-137.3613281-56.557373-137.3613281-140.8178101
			c0-84.2666626,49.6347656-150.637085,131.0141602-150.637085c91.1862793,0,115.4294434,80.2219849,115.4294434,131.5896606
			c0,10.3855591-1.1572266,18.468689-1.7329102,23.6646118H2406.064209z M2554.9682617,554.4370728
			c0.5788574-32.3202515-13.2727051-82.5305481-70.4118652-82.5305481c-51.3647461,0-73.875,47.3230286-77.9165039,82.5305481
			H2554.9682617z"/>
		<path class="st1" d="M2695.2260742,590.802063c1.1542969,68.6790161,45.0175781,96.9608154,95.8066406,96.9608154
			c36.3618164,0,58.2902832-6.3533325,77.3376465-14.4302979l8.6557617,36.3587646
			c-17.8901367,8.0769653-48.4804688,17.3113403-92.9191895,17.3113403
			c-85.9936523,0-137.3613281-56.557373-137.3613281-140.8178101c0-84.2666626,49.6347656-150.637085,131.0109863-150.637085
			c91.1923828,0,115.4296875,80.2219849,115.4296875,131.5896606c0,10.3855591-1.1513672,18.468689-1.7299805,23.6646118
			H2695.2260742z M2844.130127,554.4370728c0.5756836-32.3202515-13.2758789-82.5305481-70.4118652-82.5305481
			c-51.3676758,0-73.875,47.3230286-77.9135742,82.5305481H2844.130127z"/>
		<path class="st1" d="M2956.1030273,517.4996338c0-28.854248-0.5756836-52.5188599-2.3085938-75.6047668h45.020752
			l2.8840332,46.171814h1.1542969c13.8515625-26.5456848,46.171875-52.5188904,92.34375-52.5188904
			c38.6672363,0,98.6906738,23.085907,98.6906738,118.8892822V721.234314h-50.7890625v-161.022644
			c0-45.0206299-16.7358398-82.5367737-64.640625-82.5367737c-33.4714355,0-59.4445801,23.6646118-68.1003418,51.9463806
			c-2.3085938,6.3471069-3.4658203,15.0089722-3.4658203,23.6646118V721.234314h-50.7890625V517.4996338z"/>
		<path class="st1" d="M3335.3029785,361.6729126v80.2219543h72.7175293v38.6673279h-72.7175293v150.637085
			c0,34.6288452,9.8100586,54.2487793,38.088623,54.2487793c13.2758789,0,23.0859375-1.7299194,29.4360352-3.4597778
			l2.3085938,38.0948486c-9.8098145,4.0384521-25.3945312,6.9195557-45.017334,6.9195557
			c-23.6647949,0-42.7089844-7.498291-54.8276367-21.3497925c-14.4301758-15.0089722-19.6259766-39.8247681-19.6259766-72.7237549
			V480.5621948h-43.284668v-38.6673279h43.284668v-66.9491272L3335.3029785,361.6729126z"/>
		<path class="st1" d="M3489.9848633,590.802063c1.1542969,68.6790161,45.017334,96.9608154,95.8063965,96.9608154
			c36.3618164,0,58.2902832-6.3533325,77.3378906-14.4302979l8.6555176,36.3587646
			c-17.8898926,8.0769653-48.4802246,17.3113403-92.9191895,17.3113403c-85.9934082,0-137.361084-56.557373-137.361084-140.8178101
			c0-84.2666626,49.6347656-150.637085,131.0109863-150.637085c91.1923828,0,115.4294434,80.2219849,115.4294434,131.5896606
			c0,10.3855591-1.151123,18.468689-1.7297363,23.6646118H3489.9848633z M3638.888916,554.4370728
			c0.5754395-32.3202515-13.2758789-82.5305481-70.4121094-82.5305481c-51.3676758,0-73.8747559,47.3230286-77.9133301,82.5305481
			H3638.888916z"/>
		<path class="st1" d="M3939.59375,721.234314l-126.9726562-388.9943848h54.2519531l60.598877,191.6067505
			c16.7390137,52.5251465,31.1691895,99.8481445,41.5546875,145.4474487h1.1574707
			c10.9641113-45.0206299,27.1242676-94.0797119,44.4418945-144.8687134l65.791748-192.1854858h53.6760254L3994.9997559,721.234314
			H3939.59375z"/>
		<path class="st1" d="M4171.6289062,311.4563904h50.7890625V721.234314h-50.7890625V311.4563904z"/>
		<path class="st1" d="M4462.5112305,721.234314l-4.0385742-35.2075806h-1.7358398
			c-15.581543,21.9347534-45.5932617,41.5546265-85.4179688,41.5546265c-56.5576172,0-85.4179688-39.8184814-85.4179688-80.2219238
			c0-67.527832,60.0234375-104.465271,167.9545898-103.8865967v-5.7745972c0-23.0858765-6.3530273-64.6405334-63.4892578-64.6405334
			c-25.9731445,0-53.0976562,8.0831909-72.7236328,20.7835388l-11.5366211-33.4776611
			c23.0854492-15.0089417,56.5571289-24.8157959,91.7646484-24.8157959c85.4179688,0,106.1953125,58.293457,106.1953125,114.2720947
			v104.465271c0,24.2433472,1.1508789,47.9017334,4.6171875,66.9491577H4462.5112305z M4455.0068359,578.6804199
			c-55.40625-1.1574097-118.3168945,8.6556396-118.3168945,62.9106445c0,32.8927002,21.9345703,48.4741821,47.9077148,48.4741821
			c36.3588867,0,59.4448242-23.0859375,67.5219727-46.7443237c1.7358398-5.1958618,2.887207-10.9642334,2.887207-16.1601562
			V578.6804199z"/>
		<path class="st1" d="M4740.7119141,721.234314l-4.0385742-35.2075806H4734.9375
			c-15.581543,21.9347534-45.5932617,41.5546265-85.4179688,41.5546265c-56.5576172,0-85.4179688-39.8184814-85.4179688-80.2219238
			c0-67.527832,60.0234375-104.465271,167.9545898-103.8865967v-5.7745972c0-23.0858765-6.3530273-64.6405334-63.4892578-64.6405334
			c-25.9731445,0-53.0976562,8.0831909-72.7236328,20.7835388l-11.5366211-33.4776611
			c23.0854492-15.0089417,56.5571289-24.8157959,91.7646484-24.8157959c85.4179688,0,106.1953125,58.293457,106.1953125,114.2720947
			v104.465271c0,24.2433472,1.1508789,47.9017334,4.6171875,66.9491577H4740.7119141z M4733.2075195,578.6804199
			c-55.40625-1.1574097-118.3168945,8.6556396-118.3168945,62.9106445c0,32.8927002,21.9345703,48.4741821,47.9077148,48.4741821
			c36.3588867,0,59.4448242-23.0859375,67.5219727-46.7443237c1.7358398-5.1958618,2.887207-10.9642334,2.887207-16.1601562
			V578.6804199z"/>
		<path class="st1" d="M4864.230957,529.0426025c0-32.8989868-0.5791016-61.17453-2.3085938-87.1477356h44.4418945
			l1.7299805,54.8274536h2.3085938c12.6938477-37.5161438,43.2841797-61.17453,77.3344727-61.17453
			c5.7744141,0,9.8129883,0.5724792,14.4301758,1.7298889v47.9017029
			c-5.1958008-1.1511841-10.3916016-1.7298889-17.3115234-1.7298889c-35.7861328,0-61.1806641,27.1243896-68.1064453,65.2192078
			c-1.1508789,6.9257812-2.3085938,15.0027466-2.3085938,23.6646118v148.901001h-50.2099609V529.0426025z"/>
		<path class="st1" d="M5288.4389648,311.4563904v337.6329041c0,24.8220215,0.5786133,53.0975952,2.3085938,72.1450195h-45.5932617
			l-2.3085938-48.4804077h-1.1572266c-15.581543,31.1628418-49.6318359,54.8274536-95.2246094,54.8274536
			c-67.527832,0-119.4682617-57.1360474-119.4682617-141.9752197
			c-0.5786133-92.9223022,57.1362305-150.0583496,125.2363281-150.0583496
			c42.7124023,0,71.5664062,20.1986084,84.2666016,42.7058105h1.1513672V311.4563904H5288.4389648z M5237.6499023,555.5944824
			c0-6.3470459-0.5786133-15.0089111-2.3085938-21.3560181c-7.5043945-32.3202515-35.2075195-58.8659363-73.2958984-58.8659363
			c-52.519043,0-83.6879883,46.1717834-83.6879883,107.9250793c0,56.557312,27.703125,103.3078613,82.5366211,103.3078613
			c34.050293,0,65.2128906-22.5072021,74.4472656-60.6020508c1.7299805-6.9257812,2.3085938-13.8515625,2.3085938-21.9285278
			V555.5944824z"/>
		<path class="st1" d="M5429.2753906,363.402771c0.5786133,17.3113403-12.121582,31.1628723-32.3203125,31.1628723
			c-17.8901367,0-30.590332-13.851532-30.590332-31.1628723c0-17.8900146,13.2792969-31.7415466,31.7480469-31.7415466
			C5417.1538086,331.6612244,5429.2753906,345.5127563,5429.2753906,363.402771z M5372.7182617,721.234314v-279.339447h50.7885742
			v279.339447H5372.7182617z"/>
		<path class="st1" d="M5507.7739258,517.4996338c0-28.854248-0.5791016-52.5188599-2.3085938-75.6047668h45.0141602
			l2.887207,46.171814h1.1577148c13.8515625-26.5456848,46.1713867-52.5188904,92.3432617-52.5188904
			c38.6674805,0,98.690918,23.085907,98.690918,118.8892822V721.234314h-50.7890625v-161.022644
			c0-45.0206299-16.7387695-82.5367737-64.640625-82.5367737c-33.4775391,0-59.4506836,23.6646118-68.1064453,51.9463806
			c-2.3085938,6.3471069-3.4599609,15.0089722-3.4599609,23.6646118V721.234314h-50.7885742V517.4996338z"/>
		<path class="st1" d="M6068.7734375,441.8948669c-1.1572266,20.1986084-2.3144531,42.7120361-2.3144531,76.7621765v162.1738281
			c0,64.0680542-12.6943359,103.3140869-39.8188477,127.5511475
			c-27.1240234,25.3945312-66.3764648,33.4776611-101.5776367,33.4776611c-33.4780273,0-70.4155273-8.0831299-92.9223633-23.0858765
			l12.6938477-38.6673584c18.46875,11.5367432,47.3295898,21.9285278,81.9580078,21.9285278
			c51.9404297,0,90.0351562-27.1243896,90.0351562-97.5394897v-31.1629028h-1.1572266
			c-15.581543,25.96698-45.5932617,46.7505493-88.8779297,46.7505493c-69.2573242,0-118.8955078-58.8721924-118.8955078-136.2130737
			c0-94.6459961,61.7597656-148.3222656,125.8212891-148.3222656c48.4804688,0,75.0327148,25.3945007,87.1479492,48.4804077
			h1.1572266l2.3085938-42.1333313H6068.7734375z M6016.2485352,552.128479c0-8.6556396-0.5786133-16.1600952-2.8808594-23.0858765
			c-9.234375-29.4329834-34.0566406-53.6700745-70.9941406-53.6700745c-48.4804688,0-83.109375,40.9759216-83.109375,105.6164856
			c0,54.8274536,27.703125,100.4205322,82.5307617,100.4205322c31.1689453,0,59.4506836-19.619873,70.4150391-51.9401855
			c2.887207-8.6618652,4.0385742-18.468689,4.0385742-27.1305542V552.128479z"/>
		<path class="st1" d="M6179.0136719,590.802063c1.1572266,68.6790161,45.0205078,96.9608154,95.8095703,96.9608154
			c36.3583984,0,58.293457-6.3533325,77.3408203-14.4302979l8.6557617,36.3587646
			c-17.8901367,8.0769653-48.4804688,17.3113403-92.9223633,17.3113403c-85.996582,0-137.3579102-56.557373-137.3579102-140.8178101
			c0-84.2666626,49.6313477-150.637085,131.0107422-150.637085c91.1860352,0,115.4296875,80.2219849,115.4296875,131.5896606
			c0,10.3855591-1.1577148,18.468689-1.7299805,23.6646118H6179.0136719z M6327.9208984,554.4370728
			c0.5786133-32.3202515-13.2729492-82.5305481-70.4155273-82.5305481c-51.3613281,0-73.8745117,47.3230286-77.9130859,82.5305481
			H6327.9208984z"/>
		<path class="st1" d="M6439.8964844,517.4996338c0-28.854248-0.5786133-52.5188599-2.3085938-75.6047668h45.0146484
			l2.887207,46.171814h1.1572266c13.8515625-26.5456848,46.171875-52.5188904,92.34375-52.5188904
			c38.6674805,0,98.690918,23.085907,98.690918,118.8892822V721.234314h-50.7890625v-161.022644
			c0-45.0206299-16.7387695-82.5367737-64.640625-82.5367737c-33.4775391,0-59.4506836,23.6646118-68.1064453,51.9463806
			c-2.3085938,6.3471069-3.4599609,15.0089722-3.4599609,23.6646118V721.234314h-50.7890625V517.4996338z"/>
	</g>
</g>
</svg>
