{
  "DDDEntities": {
    "MessageThreadEntity": {
      "type": "object",
      "properties": {
        "id": {
          "type": "string",
          "format": "uuid"
        },
        "type": {
          "type": "string",
          "example": "message_thread",
          "enum": [
            "message_thread"
          ]
        },
        "meta": {
          "type": "object",
          "properties": {
            "created": {
              "type": "string",
              "format": "date-time"
            },
            "last_modified": {
              "type": "string",
              "format": "date-time"
            },
            "number_of_messages": {
              "type": "integer",
              "example": 15
            },
            "summary": {
              "type": "string",
              "example": "1 - note, message slug .. "
            },
            "unread_employee_count": {
              "type": "integer"
            },
            "unread_pip_count": {
              "type": "integer"
            },
            "attachment_count": {
              "type": "integer"
            }
          },
          "additionalProperties": false,
          "required": [
            "created",
            "last_modified",
            "number_of_messages",
            "summary",
            "unread_employee_count",
            "unread_pip_count",
            "attachment_count"
          ]
        },
        "attributes": {
          "type": "object",
          "properties": {
            "thread_type": {
              "type": "string",
              "enum": [
                "note",
                "contact_moment",
                "pip_message",
                "email",
                "postex"
              ]
            },
            "last_message": {
              "type": "object",
              "oneOf": [
                {
                  "properties": {
                    "message_type": {
                      "type": "string",
                      "enum": [
                        "note"
                      ],
                      "example": "note"
                    },
                    "slug": {
                      "type": "string"
                    },
                    "created_name": {
                      "type": "string",
                      "example": "Ad min"
                    },
                    "created": {
                      "type": "string",
                      "format": "date-time",
                      "example": "2019-07-19 13:45:00"
                    }
                  },
                  "additionalProperties": false,
                  "required": [
                    "message_type",
                    "slug",
                    "created_name",
                    "created"
                  ]
                },
                {
                  "properties": {
                    "message_type": {
                      "type": "string",
                      "enum": [
                        "contact_moment"
                      ],
                      "example": "contact_moment"
                    },
                    "slug": {
                      "type": "string",
                      "example": "some message"
                    },
                    "direction": {
                      "type": "string",
                      "enum": [
                        "incoming",
                        "outgoing"
                      ]
                    },
                    "channel": {
                      "type": "string",
                      "enum": [
                        "assignee",
                        "frontdesk",
                        "phone",
                        "mail",
                        "email",
                        "webform",
                        "social_media",
                        "external_application"
                      ]
                    },
                    "created_name": {
                      "type": "string",
                      "example": "Ad Min"
                    },
                    "recipient_name": {
                      "type": "string",
                      "example": "John Doe"
                    },
                    "created": {
                      "type": "string",
                      "format": "date-time"
                    }
                  },
                  "additionalProperties": false,
                  "required": [
                    "message_type",
                    "slug",
                    "direction",
                    "channel",
                    "created_name",
                    "recipient_name",
                    "created"
                  ]
                },
                {
                  "properties": {
                    "message_type": {
                      "type": "string",
                      "enum": [
                        "email"
                      ]
                    },
                    "slug": {
                      "type": "string",
                      "example": "some message"
                    },
                    "subject": {
                      "type": "string",
                      "example": "some subject"
                    },
                    "created_name": {
                      "type": "string",
                      "example": "Ad Min"
                    },
                    "created": {
                      "type": "string",
                      "format": "date-time"
                    },
                    "failure_reason": {
                      "type": "string",
                      "example": "Error sending email message: too large (41943040 > max=20971520)"
                    }
                  },
                  "additionalProperties": false,
                  "required": [
                    "message_type",
                    "slug",
                    "subject",
                    "created_name",
                    "created"
                  ]
                },
                {
                  "properties": {
                    "message_type": {
                      "type": "string",
                      "enum": [
                        "pip_message"
                      ],
                      "example": "pip_message"
                    },
                    "slug": {
                      "type": "string",
                      "example": "some message"
                    },
                    "subject": {
                      "type": "string",
                      "example": "some subject"
                    },
                    "created_name": {
                      "type": "string",
                      "example": "Ad Min"
                    },
                    "created": {
                      "type": "string",
                      "format": "date-time"
                    }
                  },
                  "additionalProperties": false,
                  "required": [
                    "message_type",
                    "slug",
                    "subject",
                    "created_name",
                    "created"
                  ]
                },
                {
                  "properties": {
                    "message_type": {
                      "type": "string",
                      "enum": [
                        "postex"
                      ]
                    },
                    "slug": {
                      "type": "string",
                      "example": "postex"
                    },
                    "subject": {
                      "type": "string",
                      "example": "some subject"
                    },
                    "created_name": {
                      "type": "string",
                      "example": "Ad Min"
                    },
                    "created": {
                      "type": "string",
                      "format": "date-time"
                    },
                    "failure_reason": {
                      "type": "string",
                      "example": "Error message for postex"
                    }
                  },
                  "additionalProperties": false,
                  "required": [
                    "message_type",
                    "slug",
                    "subject",
                    "created_name",
                    "created"
                  ]
                }
              ]
            }
          },
          "required": [
            "thread_type",
            "last_message"
          ]
        },
        "relationships": {
          "type": "object",
          "properties": {
            "contact": {
              "type": "object",
              "properties": {
                "data": {
                  "$ref": "#/DDDEntities/ContactEntity"
                }
              },
              "additionalProperties": false,
              "required": [
                "data"
              ]
            },
            "case": {
              "type": "object",
              "properties": {
                "data": {
                  "$ref": "#/DDDEntities/CaseEntity"
                }
              },
              "additionalProperties": false,
              "required": [
                "data"
              ]
            }
          },
          "additionalProperties": false
        },
        "links": {
          "type": "object",
          "properties": {
            "thread_messages": {
              "type": "object",
              "properties": {
                "href": {
                  "type": "string",
                  "example": "/v2/communication/get_message_list?thread_uuid=74f7c47f-6575-4c08-8e94-0997514cc928"
                }
              },
              "additionalProperties": false,
              "required": [
                "href"
              ]
            }
          },
          "additionalProperties": false,
          "required": [
            "thread_messages"
          ]
        }
      },
      "additionalProperties": false,
      "required": [
        "id",
        "type",
        "meta",
        "attributes",
        "links"
      ]
    },
    "MessageEntity": {
      "oneOf": [
        {
          "$ref": "#/DDDEntities/MessageContactMoment"
        },
        {
          "$ref": "#/DDDEntities/MessageNote"
        },
        {
          "$ref": "#/DDDEntities/MessageExternal"
        }
      ]
    },
    "ContactEntity": {
      "type": "object",
      "properties": {
        "id": {
          "type": "string",
          "format": "uuid"
        },
        "type": {
          "type": "string",
          "example": "contact",
          "enum": [
            "contact"
          ]
        },
        "attributes": {
          "type": "object",
          "properties": {
            "type": {
              "type": "string",
              "enum": [
                "employee",
                "person",
                "organization"
              ]
            },
            "name": {
              "type": "string"
            },
            "address": {
              "type": "string",
              "nullable": true
            },
            "email_address": {
              "type": "string",
              "format": "email",
              "nullable": true
            }
          },
          "additionalProperties": false,
          "required": [
            "type",
            "name",
            "address",
            "email_address"
          ]
        }
      },
      "additionalProperties": false,
      "required": [
        "id",
        "type",
        "attributes"
      ]
    },
    "CaseEntity": {
      "type": "object",
      "properties": {
        "id": {
          "type": "string",
          "format": "uuid"
        },
        "type": {
          "type": "string",
          "example": "case",
          "enum": [
            "case"
          ]
        },
        "attributes": {
          "type": "object",
          "properties": {
            "display_id": {
              "type": "integer"
            },
            "description": {
              "type": "string",
              "nullable": true
            },
            "case_type_name": {
              "type": "string"
            },
            "status": {
              "type": "string",
              "enum": [
                "new",
                "open",
                "stalled",
                "resolved"
              ]
            }
          },
          "additionalProperties": false,
          "required": [
            "display_id",
            "description",
            "case_type_name",
            "status"
          ]
        }
      },
      "additionalProperties": false,
      "required": [
        "id",
        "type",
        "attributes"
      ]
    },
    "ContactMomentOverviewEntity": {
      "type": "object",
      "properties": {
        "id": {
          "type": "string",
          "format": "uuid"
        },
        "type": {
          "type": "string",
          "example": "contact_moment_overview",
          "enum": [
            "contact_moment_overview"
          ]
        },
        "attributes": {
          "type": "object",
          "properties": {
            "contact_uuid": {
              "type": "string"
            },
            "contact": {
              "type": "string"
            },
            "case_id": {
              "type": "string"
            },
            "direction": {
              "type": "string"
            },
            "uuid": {
              "type": "string"
            },
            "created": {
              "type": "string",
              "format": "date-time"
            },
            "summary": {
              "type": "string"
            },
            "channel": {
              "type": "string"
            },
            "thread_uuid": {
              "type": "string"
            },
            "contact_type": {
              "type": "string"
            }
          },
          "additionalProperties": false,
          "required": [
            "contact_uuid",
            "contact",
            "case_id",
            "direction",
            "uuid",
            "created",
            "summary",
            "channel",
            "thread_uuid",
            "contact_type"
          ]
        }
      },
      "additionalProperties": false,
      "required": [
        "id",
        "type",
        "attributes"
      ]
    },
    "MessageNote": {
      "type": "object",
      "properties": {
        "id": {
          "type": "string",
          "format": "uuid"
        },
        "type": {
          "type": "string",
          "enum": [
            "note"
          ]
        },
        "meta": {
          "type": "object",
          "properties": {
            "last_modified": {
              "type": "string",
              "format": "date-time"
            },
            "created": {
              "type": "string",
              "format": "date-time"
            },
            "message_date": {
              "type": "string",
              "format": "date-time"
            },
            "summary": {
              "type": "string",
              "example": "Please send us more information"
            }
          },
          "additionalProperties": false,
          "required": [
            "created",
            "summary"
          ]
        },
        "attributes": {
          "type": "object",
          "properties": {
            "content": {
              "type": "string"
            }
          },
          "additionalProperties": false,
          "required": [
            "content"
          ]
        },
        "relationships": {
          "properties": {
            "created_by": {
              "type": "object",
              "properties": {
                "data": {
                  "$ref": "#/DDDEntities/ContactEntity"
                }
              },
              "additionalProperties": false,
              "required": [
                "data"
              ]
            },
            "thread": {
              "type": "object",
              "properties": {
                "data": {
                  "$ref": "#/DDDEntities/ThreadEntity"
                }
              },
              "additionalProperties": false,
              "required": [
                "data"
              ]
            }
          },
          "additionalProperties": false,
          "required": [
            "created_by",
            "thread"
          ]
        }
      },
      "additionalProperties": false,
      "required": [
        "id",
        "type",
        "meta",
        "attributes",
        "relationships"
      ]
    },
    "MessageContactMoment": {
      "type": "object",
      "properties": {
        "id": {
          "type": "string",
          "format": "uuid"
        },
        "type": {
          "type": "string",
          "enum": [
            "contact_moment"
          ]
        },
        "meta": {
          "type": "object",
          "properties": {
            "last_modified": {
              "type": "string",
              "format": "date-time"
            },
            "created": {
              "type": "string",
              "format": "date-time"
            },
            "message_date": {
              "type": "string",
              "format": "date-time"
            },
            "summary": {
              "type": "string",
              "example": "Please send us more information"
            }
          },
          "additionalProperties": false,
          "required": [
            "created",
            "summary"
          ]
        },
        "attributes": {
          "type": "object",
          "properties": {
            "content": {
              "type": "string"
            },
            "direction": {
              "type": "string",
              "enum": [
                "incoming",
                "outgoing"
              ]
            },
            "channel": {
              "type": "string",
              "enum": [
                "assignee",
                "frontdesk",
                "phone",
                "mail",
                "email",
                "webform",
                "social_media",
                "external_application"
              ]
            }
          },
          "additionalProperties": false,
          "required": [
            "content",
            "direction",
            "channel"
          ]
        },
        "relationships": {
          "properties": {
            "created_by": {
              "type": "object",
              "properties": {
                "data": {
                  "$ref": "#/DDDEntities/ContactEntity"
                }
              },
              "additionalProperties": false,
              "required": [
                "data"
              ]
            },
            "recipient": {
              "type": "object",
              "properties": {
                "data": {
                  "$ref": "#/DDDEntities/ContactEntity"
                }
              },
              "additionalProperties": false,
              "required": [
                "data"
              ]
            },
            "thread": {
              "type": "object",
              "properties": {
                "data": {
                  "$ref": "#/DDDEntities/ThreadEntity"
                }
              },
              "additionalProperties": false,
              "required": [
                "data"
              ]
            }
          },
          "additionalProperties": false,
          "required": [
            "created_by",
            "recipient",
            "thread"
          ]
        }
      },
      "additionalProperties": false,
      "required": [
        "id",
        "type",
        "meta",
        "attributes",
        "relationships"
      ]
    },
    "MessageExternal": {
      "type": "object",
      "properties": {
        "id": {
          "type": "string",
          "format": "uuid"
        },
        "type": {
          "type": "string",
          "enum": [
            "external_message"
          ]
        },
        "meta": {
          "type": "object",
          "properties": {
            "last_modified": {
              "type": "string",
              "format": "date-time"
            },
            "created": {
              "type": "string",
              "format": "date-time"
            },
            "message_date": {
              "type": "string",
              "format": "date-time"
            },
            "read_employee": {
              "type": "string",
              "format": "date-time",
              "nullable": true
            },
            "read_pip": {
              "type": "string",
              "format": "date-time",
              "nullable": true
            },
            "summary": {
              "type": "string",
              "example": "Please send us more information"
            },
            "attachment_count": {
              "type": "integer"
            },
            "failure_reason": {
              "type": "string",
              "example": "Error sending email message: too large (41943040 > max=20971520)"
            }
          },
          "additionalProperties": false,
          "required": [
            "created",
            "summary",
            "read_employee",
            "read_pip",
            "attachment_count"
          ]
        },
        "attributes": {
          "type": "object",
          "properties": {
            "message_type": {
              "type": "string",
              "enum": [
                "pip",
                "email"
              ]
            },
            "content": {
              "type": "string"
            },
            "subject": {
              "type": "string",
              "nullable": true
            },
            "participants": {
              "type": "array",
              "items": {
                "$ref": "#/DDDEntities/MessageParticipant"
              }
            },
            "is_imported": {
              "type": "boolean"
            }
          },
          "additionalProperties": false,
          "required": [
            "message_type",
            "content",
            "subject"
          ]
        },
        "relationships": {
          "properties": {
            "created_by": {
              "type": "object",
              "properties": {
                "data": {
                  "$ref": "#/DDDEntities/ContactEntity"
                }
              },
              "additionalProperties": false,
              "required": [
                "data"
              ]
            },
            "thread": {
              "type": "object",
              "properties": {
                "data": {
                  "$ref": "#/DDDEntities/ThreadEntity"
                }
              },
              "additionalProperties": false,
              "required": [
                "data"
              ]
            },
            "attachments": {
              "type": "object",
              "properties": {
                "data": {
                  "type": "array",
                  "items": {
                    "$ref": "#/DDDEntities/AttachmentEntity"
                  }
                }
              },
              "additionalProperties": false,
              "required": [
                "data"
              ]
            }
          },
          "additionalProperties": false,
          "required": [
            "thread",
            "attachments"
          ]
        }
      },
      "additionalProperties": false,
      "required": [
        "id",
        "type",
        "meta",
        "attributes",
        "relationships"
      ]
    },
    "AttachmentEntity": {
      "type": "object",
      "properties": {
        "id": {
          "type": "string",
          "format": "uuid"
        },
        "type": {
          "type": "string",
          "example": "Attachment",
          "enum": [
            "Attachment"
          ]
        },
        "attributes": {
          "type": "object",
          "properties": {
            "name": {
              "type": "string"
            },
            "md5": {
              "type": "string"
            },
            "mimetype": {
              "type": "string"
            },
            "size": {
              "type": "integer"
            },
            "date_created": {
              "type": "string",
              "format": "date-time"
            }
          },
          "additionalProperties": false,
          "required": [
            "name",
            "md5",
            "size",
            "mimetype",
            "date_created"
          ]
        },
        "links": {
          "type": "object",
          "properties": {
            "download": {
              "type": "object",
              "properties": {
                "href": {
                  "type": "string",
                  "example": "/api/v2/communication/download_attachment?id=74f7c47f-6575-4c08-8e94-0997514cc928"
                }
              },
              "required": [
                "href"
              ],
              "additionalProperties": false
            },
            "preview": {
              "type": "object",
              "properties": {
                "href": {
                  "type": "string",
                  "example": "/api/v2/communication/preview_attachment?id=74f7c47f-6575-4c08-8e94-0997514cc928"
                },
                "meta": {
                  "type": "object",
                  "properties": {
                    "content-type": {
                      "type": "string",
                      "example": "image/jpeg"
                    }
                  }
                }
              },
              "required": [
                "href",
                "meta"
              ],
              "additionalProperties": false
            }
          },
          "additionalProperties": false,
          "required": [
            "download"
          ]
        }
      },
      "additionalProperties": false,
      "required": [
        "id",
        "type",
        "links",
        "attributes"
      ]
    },
    "ThreadEntity": {
      "type": "object",
      "properties": {
        "id": {
          "type": "string",
          "format": "uuid"
        },
        "type": {
          "type": "string",
          "example": "message_thread",
          "enum": [
            "message_thread"
          ]
        }
      },
      "additionalProperties": false,
      "required": [
        "id",
        "type"
      ]
    },
    "MessageParticipant": {
      "type": "object",
      "properties": {
        "role": {
          "type": "string",
          "enum": [
            "to",
            "from",
            "cc",
            "bcc"
          ]
        },
        "display_name": {
          "type": "string"
        },
        "address": {
          "type": "string"
        },
        "uuid": {
          "type": "string",
          "format": "uuid",
          "description": "UUID of the participant(uuid of employee/person/organization)"
        }
      },
      "required": [
        "role",
        "display_name",
        "address"
      ],
      "additionalProperties": false
    }
  }
}
