<?xml version="1.0" encoding="utf-8"?>
<!-- Generator: Adobe Illustrator 26.0.1, SVG Export Plug-In . SVG Version: 6.00 Build 0)  -->
<svg version="1.1" id="Laag_1" xmlns="http://www.w3.org/2000/svg" xmlns:xlink="http://www.w3.org/1999/xlink" x="0px" y="0px"
	 viewBox="0 0 496.4 366" style="enable-background:new 0 0 496.4 366;" xml:space="preserve">
<style type="text/css">
	.st0{fill:#A3C0E6;}
	.st1{fill:#004288;}
	.st2{fill:#0072BA;}
</style>
<g>
	<polygon class="st0" points="269.3,164.6 49.3,209.9 151.9,355.8 	"/>
	<g>
		<path class="st1" d="M496.3,118.6l-76.2-8.6l0.1-1.2l76.2,8.6L496.3,118.6z M50,68L0,62.3l0.1-1.2l50,5.7L50,68z"/>
	</g>
	<polygon class="st1" points="285.2,111.7 36.6,162.9 152.5,327.7 	"/>
	<g>
		<path class="st2" d="M50.8,94.1c-0.2-0.1-0.4-0.2-0.6-0.4C49,93.2,48,93,46.9,92.9c-3.8-0.3-6.9,3.3-5.9,7.3c0.5,2,2,4.3,4.9,6.6
			c7.4,6.2,12.8,5.9,15.5,2.2c2.2-3,1.6-6.4-2-9.2l-1-0.7L58.3,99l-3.6,5.1l-2.4-1.7l5.8-8.2l11.3,8l-1.6,2.3l-3.1-1.9
			c0.1,0.2,0.2,0.5,0.3,0.7c1.2,3.1,0.5,6.3-2.5,9.3c-4.1,4.1-11.6,4.2-19.4-2.8c-5.1-4.6-6.5-9.7-4.8-13.9c2.3-5.8,7.8-8,13.6-5.7
			c0.2,0.1,0.5,0.2,0.7,0.3L50.8,94.1"/>
		<path class="st2" d="M65.8,89.7c0.2,0.2,0.5,0.4,0.8,0.7c4.3,3.3,7.9,2.8,9.6-0.3c0.2-0.3,0.3-0.6,0.4-1c0.3-1.2,0.2-2.3-0.6-4.3
			c-0.1-0.2-0.2-0.4-0.2-0.5l3-1.5c0.1,0.2,0.2,0.5,0.3,0.7c1.2,2.8,1,5.6-0.4,8c-3.5,5.8-10.6,6.3-17.3-1c-3-3.3-3.9-6.5-3.2-9.5
			c0.2-0.6,0.4-1.2,0.7-1.8c2.6-5,8-5.9,14.3-1.3c0.5,0.4,1,0.8,1.5,1.2L65.8,89.7 M70.5,80.5c-0.2-0.2-0.5-0.4-0.8-0.6
			c-1.1-0.8-2.1-1.3-3.2-1.6c-2.9-0.7-5.6,1.4-5.4,4.5c0.1,1.3,0.7,2.9,2.2,4.5c0.3,0.3,0.5,0.5,0.7,0.7L70.5,80.5z"/>
		<path class="st2" d="M69.8,67.4l2.6-2.5l2,2.1l0-0.5l0-0.5c0-0.3,0-0.5,0-0.8c0.1-1.7,0.6-3,1.4-4.1c2-2.9,5.3-3.6,7.6-2.1
			c0-0.2-0.1-0.4-0.1-0.5c-0.2-2.4,0.3-4.3,1.3-5.7c2.8-4,6.7-3.9,10.5,0.1l10.5,11.2l-2.7,2.5L92.8,55.8c-0.7-0.8-1.2-1.2-1.5-1.4
			c-1.8-1.5-4.6-0.8-5.7,1.8c-0.4,1.1-0.5,2.6-0.1,4.1c0.1,0.2,0.1,0.4,0.2,0.6l10.9,11.6L94,75.1L83.9,64.3
			c-0.8-0.8-1.2-1.2-1.5-1.5c-1.9-1.6-4.6-0.9-5.7,1.8c-0.3,0.7-0.4,1.5-0.4,2.5c0,0.5,0.1,1,0.2,1.5c0.1,0.2,0.1,0.5,0.2,0.7
			l11,11.7L85,83.6L69.8,67.4"/>
		<path class="st2" d="M105.1,51.3c0.2,0.3,0.4,0.5,0.6,0.8c3.5,4.2,7.1,4.4,9.4,1.8c0.3-0.3,0.4-0.5,0.6-0.9
			c0.6-1.1,0.7-2.2,0.4-4.3c-0.1-0.2-0.1-0.4-0.1-0.6l3.3-0.8c0.1,0.2,0.1,0.5,0.2,0.8c0.6,3-0.2,5.7-2.2,7.8
			c-4.7,4.9-11.7,3.9-16.7-4.6c-2.3-3.9-2.5-7.2-1.1-9.9c0.3-0.6,0.6-1.1,1.1-1.6c3.6-4.3,9-4,14.2,1.8c0.5,0.5,0.8,1,1.2,1.5
			L105.1,51.3 M111.7,43.3c-0.2-0.3-0.4-0.5-0.6-0.8c-0.9-1-1.8-1.7-2.7-2.2c-2.7-1.3-5.8,0.2-6.3,3.3c-0.2,1.3,0.1,3,1.2,4.8
			c0.2,0.3,0.3,0.6,0.6,0.9L111.7,43.3z"/>
		<path class="st2" d="M121.9,39.1c0.2,0.3,0.4,0.6,0.6,0.9c3.2,4.4,6.7,5,9.3,2.5c0.3-0.2,0.5-0.5,0.7-0.8c0.7-1,0.9-2.2,0.7-4.2
			c0-0.2-0.1-0.4-0.1-0.6l3.3-0.5c0.1,0.2,0.1,0.5,0.1,0.8c0.3,3.1-0.6,5.7-2.8,7.6c-5.1,4.5-11.9,2.9-16.2-6c-1.9-4-1.9-7.4-0.3-10
			c0.4-0.6,0.7-1.1,1.2-1.5c4-4,9.3-3.3,14,2.9c0.4,0.5,0.8,1,1.1,1.6L121.9,39.1 M129.1,31.7c-0.2-0.3-0.4-0.6-0.6-0.8
			c-0.8-1.1-1.6-1.9-2.6-2.4c-2.5-1.6-5.8-0.3-6.5,2.8c-0.3,1.3-0.1,3,0.8,4.9c0.2,0.3,0.3,0.6,0.5,0.9L129.1,31.7z"/>
		<path class="st2" d="M132,19.3l3.2-1.7l1.4,2.7l0.1-0.4l0.1-0.5c0.1-0.2,0.2-0.5,0.2-0.7c0.3-0.8,0.5-1.3,0.8-1.8
			c2.3-4.2,7.7-4.6,10.1-1.6c0.5,0.6,0.9,1.4,1.6,2.6l7.1,13.6l-3.2,1.7l-6.8-13c-0.5-1-0.8-1.5-1.1-1.9c-1.4-2-4.2-2.1-5.9,0.2
			c-0.5,0.6-0.8,1.3-1.2,2.4c-0.1,0.5-0.2,1-0.3,1.5c0,0.2,0,0.5,0,0.7l7.4,14.2l-3.3,1.7L132,19.3"/>
		<path class="st2" d="M149.3,10.4l3.3-1.4l-2.2-5.1l3.3-1.5l2.2,5.1l5.1-2.3l1.1,2.5L157,10l5.3,12c1.4,3.3,3,3.7,6,0.9
			c0.1-0.1,0.2-0.2,0.4-0.3l1.2,2.7l-0.2,0.2l-0.3,0.3c-0.8,0.7-1.4,1-2,1.4c-4,2.1-6.3,1.1-8.4-3.6l-5.3-12.1l-3.2,1.4L149.3,10.4"
			/>
		<path class="st2" d="M170.8,13.8c0.1,0.3,0.2,0.6,0.4,1c2.1,5,5.5,6.3,8.5,4.5c0.3-0.2,0.6-0.4,0.9-0.7c0.9-0.9,1.3-1.9,1.6-4
			c0-0.2,0-0.4,0-0.6l3.4,0.2c0,0.3,0,0.5-0.1,0.8c-0.3,3.1-1.9,5.4-4.3,6.8c-5.9,3.3-12.3,0.3-14.6-9.3c-1-4.3-0.2-7.6,1.9-9.8
			c0.5-0.5,0.9-0.9,1.5-1.2c4.7-3,9.8-1.2,13,5.9c0.3,0.6,0.5,1.2,0.7,1.8L170.8,13.8 M179.4,8.1c-0.1-0.3-0.2-0.6-0.4-0.9
			c-0.5-1.2-1.2-2.2-2-2.9c-2.2-2.1-5.6-1.5-6.9,1.3c-0.6,1.2-0.8,2.9-0.3,5c0.1,0.4,0.2,0.7,0.3,1L179.4,8.1z"/>
		<polygon class="st1" points="145.7,74.6 173.5,59.1 176,63.6 164.7,69.8 184.2,104.8 178.9,107.8 159.4,72.8 148.2,79.1 		"/>
		<path class="st1" d="M195.1,81.3c0.2,0.5,0.4,1,0.5,1.5c3.2,7.9,8.4,10,13.2,7.2c0.5-0.2,0.9-0.6,1.4-1c1.4-1.3,2.1-3,2.6-6.2
			c0-0.3,0.1-0.6,0.1-0.9l5.3,0.4c0,0.4,0,0.8-0.1,1.2c-0.6,4.8-3,8.4-7,10.5c-9.4,5-19.3,0.1-22.6-15c-1.5-6.8-0.2-12,3.2-15.4
			c0.7-0.7,1.5-1.4,2.4-1.9c7.5-4.7,15.4-1.7,20.3,9.5c0.5,0.9,0.8,1.9,1,2.8L195.1,81.3 M208.7,72.5c-0.2-0.5-0.4-1-0.6-1.5
			c-0.8-2-1.8-3.4-3-4.7c-3.3-3.3-8.7-2.5-10.9,1.9c-0.9,1.9-1.3,4.5-0.6,7.8c0.1,0.6,0.2,1,0.4,1.6L208.7,72.5z"/>
		<path class="st1" d="M219.3,55.1l5.6-1l1.5,7.9c0.2-0.5,0.3-1.1,0.5-1.7c1.7-4.5,4.1-7.2,7.5-8.6c0.9-0.4,1.9-0.7,2.9-0.8l1,5.4
			c-1.8,0.2-3.5,0.9-4.9,1.9c-1.9,1.3-3.4,3.2-4.6,6c-1.1,2.7-1.3,3.9-1.1,4.5l3.7,19.5l-5.7,1.1L219.3,55.1"/>
		<path class="st1" d="M244.5,50.9l5.7-0.1l0.1,4.7l0.4-0.5l0.5-0.6c0.2-0.3,0.5-0.6,0.8-0.9c0.9-0.9,1.7-1.5,2.4-2
			c6.2-4.3,14-1.2,15.3,4.8c0.2,1.2,0.4,2.6,0.4,4.8l0.6,24l-5.7,0.1l-0.6-23c0-1.8-0.1-2.6-0.2-3.4c-0.6-3.7-4.5-5.8-8.4-3.9
			c-1.1,0.5-2.1,1.3-3.3,2.5c-0.5,0.6-1,1.3-1.5,2c-0.2,0.3-0.4,0.6-0.5,1l0.6,25.1l-5.8,0.1L244.5,50.9"/>
		<path class="st1" d="M283.9,69.7c-0.1,0.5-0.2,1.1-0.3,1.6c-0.9,8.5,2.6,12.8,8.2,12.7c0.6,0,1.1-0.1,1.7-0.2
			c1.9-0.5,3.3-1.6,5.3-4.2c0.2-0.3,0.3-0.5,0.5-0.7l4.4,2.9c-0.2,0.4-0.4,0.7-0.7,1c-2.8,3.9-6.7,6-11.1,5.9
			c-10.6-0.1-17-9.1-12.7-24c1.9-6.7,5.5-10.6,10.1-12c1-0.3,2-0.5,3-0.5c8.8-0.5,14.4,5.9,13.3,18.1c0,1-0.2,2-0.4,3L283.9,69.7
			 M300.1,68.5c0.1-0.5,0.2-1.1,0.2-1.6c0.2-2.1,0.1-3.9-0.4-5.5c-1.4-4.5-6.5-6.3-10.5-3.6c-1.7,1.2-3.3,3.3-4.2,6.6
			c-0.2,0.6-0.3,1-0.4,1.6L300.1,68.5z"/>
		<path class="st1" d="M318.6,58.2l5.4,2L316,81.8c-2.1,5.8-0.7,9,4.1,9.6c2,0.3,4.5-0.3,7.5-2.4c0.3-0.2,0.6-0.4,1-0.7l8.5-23.4
			l5.4,1.9l-11.9,32.7l-5.4-2l1.7-4.6l-0.7,0.4l-0.8,0.5c-2.1,1.1-3.7,1.6-5.6,1.7c-0.7,0-1.4,0-2.1-0.1c-7.4-1.2-10.1-6.7-7.1-14.9
			L318.6,58.2"/>
		<path class="st1" d="M335.9,97.7l25.3-12.8c0.8-0.5,2-0.8,3.2-1.1c0.3-0.1,0.7-0.1,1-0.2c-0.4-0.1-0.7-0.2-1-0.2
			c-1.2-0.4-2.3-0.8-3.1-1.2l-10.7-6.1l2.4-4.1L372.3,83l-2,3.4l-24.6,12.7c-1.5,0.8-3.1,1.2-4.7,1.4c0.4,0.1,0.7,0.2,1.1,0.3
			c1.3,0.4,2.5,0.9,3.5,1.5l11.6,6.6l-2.4,4.1l-21-12L335.9,97.7"/>
		<path class="st1" d="M371.6,104.9c-0.3,0.4-0.7,0.8-1,1.3c-5.1,6.9-4.1,12.4,0.8,15c0.5,0.3,1,0.5,1.6,0.6c1.9,0.5,3.7,0.3,6.7-1
			c0.3-0.2,0.6-0.3,0.8-0.4l2.4,4.7c-0.3,0.2-0.7,0.4-1.1,0.6c-4.4,2-8.8,1.8-12.6-0.4c-9.2-5.4-10.2-16.4,0.9-27.1
			c5-4.9,10.1-6.4,14.8-5.4c1,0.3,2,0.6,2.9,1c7.9,3.9,9.5,12.3,2.5,22.3c-0.5,0.9-1.2,1.6-1.9,2.4L371.6,104.9 M386.2,111.8
			c0.3-0.4,0.7-0.8,0.9-1.3c1.3-1.7,2-3.3,2.4-5c1.1-4.6-2.4-8.7-7.3-8.3c-2.1,0.2-4.5,1.3-7,3.6c-0.4,0.4-0.8,0.8-1.1,1.2
			L386.2,111.8z"/>
		<path class="st1" d="M407.3,112.1l3.7,4.4l-3.6,3l0.7,0l0.8,0c0.4,0,0.8,0.1,1.2,0.1c1.3,0.2,2.2,0.4,3.1,0.6
			c7.2,2.2,9.6,10.2,5.8,14.9c-0.8,0.9-1.8,1.9-3.4,3.3L397,153.9l-3.7-4.4l17.6-14.8c1.3-1.1,2-1.7,2.5-2.3c2.6-2.8,1.8-7.2-2.3-9
			c-1.1-0.5-2.3-0.8-4-1c-0.8,0-1.6,0-2.5,0.1c-0.4,0.1-0.7,0.1-1.1,0.2l-19.2,16.2l-3.7-4.4L407.3,112.1"/>
		<path class="st1" d="M169,366l-1-0.6l150-248.1l1,0.6L169,366z M134.5,77.3L113.2,75l0.1-1.2l21.3,2.3L134.5,77.3z"/>
	</g>
</g>
</svg>
