<svg xmlns="http://www.w3.org/2000/svg" xmlns:xlink="http://www.w3.org/1999/xlink" width="230" height="126" viewBox="0 0 230 126">
    <defs>
        <filter id="a" width="148.5%" height="148.1%" x="-24.2%" y="-24%" filterUnits="objectBoundingBox">
            <feOffset in="SourceAlpha" result="shadowOffsetOuter1"/>
            <feGaussianBlur in="shadowOffsetOuter1" result="shadowBlurOuter1" stdDeviation="4"/>
            <feColorMatrix in="shadowBlurOuter1" result="shadowMatrixOuter1" values="0 0 0 0 0 0 0 0 0 0 0 0 0 0 0 0 0 0 0.2 0"/>
            <feMerge>
                <feMergeNode in="shadowMatrixOuter1"/>
                <feMergeNode in="SourceGraphic"/>
            </feMerge>
        </filter>
        <path id="b" d="M.01.167h65.823V66H.01z"/>
    </defs>
    <g fill="none" fill-rule="evenodd">
        <path fill="#F3CE32" d="M0 126h230V0H0z"/>
        <path fill="#303030" d="M119.168 59.218c0 .819-.06 1.54-.18 2.164-.12.624-.337 1.153-.652 1.588-.315.434-.75.784-1.304 1.049-.554.264-1.266.44-2.136.529l-.926-1.966a9.14 9.14 0 0 0 1.257-.265c.334-.1.602-.239.803-.415.202-.177.34-.397.416-.662.076-.264.114-.586.114-.964a4.513 4.513 0 0 1-.88.577c-.333.17-.74.255-1.218.255-.53 0-1.027-.1-1.493-.303a3.226 3.226 0 0 1-1.229-.954c-.353-.435-.63-.983-.832-1.644-.201-.662-.302-1.459-.302-2.391 0-.744.085-1.424.255-2.041.17-.618.42-1.15.747-1.597.327-.448.73-.794 1.21-1.04.478-.246 1.026-.368 1.644-.368.44 0 .84.075 1.2.226.359.152.658.334.897.548v-.567h2.609v8.24zm-2.609-5.14c-.415-.568-1.001-.851-1.757-.851-1.033 0-1.55.844-1.55 2.532 0 1.02.154 1.758.463 2.212.309.453.721.68 1.238.68.403 0 .724-.076.964-.227.24-.151.453-.353.642-.605v-3.742zm12.775 1.87c0 .19-.003.35-.01.482a4.63 4.63 0 0 1-.028.35h-5.935c.026.34.101.63.227.87.126.239.284.43.473.576.189.145.4.252.633.32.233.07.47.105.709.105.365 0 .693-.063.982-.19.29-.125.53-.295.719-.51l1.852 1.55c-.403.517-.93.914-1.578 1.191a4.986 4.986 0 0 1-1.975.416c-.719 0-1.364-.123-1.938-.369a4.14 4.14 0 0 1-1.464-1.04 4.684 4.684 0 0 1-.936-1.625c-.22-.636-.33-1.345-.33-2.126 0-.756.113-1.452.34-2.088a5.115 5.115 0 0 1 .935-1.645c.397-.46.863-.815 1.399-1.067a4.054 4.054 0 0 1 1.748-.378c.655 0 1.244.135 1.767.406.523.27.96.643 1.314 1.115.352.473.623 1.024.812 1.654.19.63.284 1.298.284 2.003zm-2.533-1.134a2.808 2.808 0 0 0-.151-.652 1.835 1.835 0 0 0-.33-.567 1.581 1.581 0 0 0-.54-.406 1.76 1.76 0 0 0-.755-.151c-.48 0-.857.17-1.134.51-.278.34-.441.762-.492 1.266h3.402zm15.723 6.086v-5.368c0-.882-.13-1.486-.388-1.814-.258-.328-.658-.491-1.2-.491-.542 0-.945.16-1.21.482-.264.32-.396.91-.396 1.767V60.9h-2.608v-5.368c0-.882-.13-1.486-.388-1.814-.258-.328-.658-.491-1.2-.491-.542 0-.945.16-1.21.482-.264.32-.396.91-.396 1.767V60.9h-2.609v-9.923h2.609v.662c.226-.24.513-.444.86-.614.346-.17.784-.255 1.313-.255.63 0 1.153.097 1.569.293.416.195.806.52 1.172.973.34-.353.746-.652 1.219-.898.472-.246 1.118-.368 1.937-.368.63 0 1.168.104 1.616.311.447.208.812.51 1.096.908.283.397.491.875.624 1.436.132.56.198 1.188.198 1.88V60.9h-2.608zm12.642-4.952c0 .19-.003.35-.01.482a4.63 4.63 0 0 1-.028.35h-5.934c.025.34.1.63.226.87.126.239.284.43.473.576.189.145.4.252.633.32.233.07.47.105.709.105.365 0 .693-.063.983-.19.29-.125.529-.295.718-.51l1.852 1.55c-.403.517-.93.914-1.578 1.191a4.986 4.986 0 0 1-1.975.416c-.719 0-1.364-.123-1.938-.369a4.14 4.14 0 0 1-1.464-1.04 4.684 4.684 0 0 1-.936-1.625c-.22-.636-.33-1.345-.33-2.126 0-.756.113-1.452.34-2.088a5.115 5.115 0 0 1 .935-1.645c.397-.46.863-.815 1.399-1.067a4.054 4.054 0 0 1 1.748-.378c.655 0 1.244.135 1.767.406.523.27.96.643 1.314 1.115.353.473.623 1.024.812 1.654.19.63.284 1.298.284 2.003zm-2.533-1.134a2.808 2.808 0 0 0-.15-.652 1.835 1.835 0 0 0-.332-.567 1.581 1.581 0 0 0-.538-.406 1.76 1.76 0 0 0-.756-.151c-.48 0-.857.17-1.134.51-.278.34-.441.762-.492 1.266h3.402zm12.208 1.134c0 .19-.004.35-.01.482a4.63 4.63 0 0 1-.028.35h-5.935c.025.34.101.63.227.87.126.239.283.43.472.576.19.145.4.252.634.32.233.07.469.105.708.105.366 0 .693-.063.983-.19.29-.125.53-.295.718-.51l1.853 1.55c-.404.517-.93.914-1.579 1.191a4.986 4.986 0 0 1-1.975.416c-.718 0-1.364-.123-1.937-.369a4.14 4.14 0 0 1-1.465-1.04 4.684 4.684 0 0 1-.935-1.625c-.22-.636-.33-1.345-.33-2.126 0-.756.112-1.452.34-2.088a5.115 5.115 0 0 1 .935-1.645c.397-.46.863-.815 1.398-1.067a4.054 4.054 0 0 1 1.749-.378c.655 0 1.244.135 1.767.406.523.27.96.643 1.313 1.115.353.473.624 1.024.813 1.654.19.63.284 1.298.284 2.003zm-2.533-1.134a2.808 2.808 0 0 0-.151-.652 1.835 1.835 0 0 0-.331-.567 1.581 1.581 0 0 0-.539-.406 1.76 1.76 0 0 0-.756-.151c-.478 0-.856.17-1.134.51-.277.34-.44.762-.491 1.266h3.402zm10.11 6.086v-5.368c0-.882-.145-1.486-.435-1.814-.29-.328-.706-.491-1.248-.491s-.96.16-1.257.482c-.296.32-.444.91-.444 1.767V60.9h-2.608v-9.923h2.608v.662c.227-.24.539-.444.936-.614.397-.17.86-.255 1.389-.255 1.26 0 2.186.406 2.778 1.219.593.812.889 1.918.889 3.317V60.9h-2.609zm10.09-.397c-.214.177-.504.321-.87.435-.365.113-.75.17-1.152.17-.404 0-.769-.073-1.097-.217a2.31 2.31 0 0 1-.831-.615 2.874 2.874 0 0 1-.53-.945 3.69 3.69 0 0 1-.188-1.21v-4.686h-1.664v-2.458h1.664v-2.551l2.608-1.304v3.856h2.381v2.457h-2.381v3.987c0 .48.082.797.245.955.164.157.404.236.719.236.24 0 .463-.057.67-.17.209-.113.476-.309.804-.586l-.378 2.646zm10.412-4.555c0 .19-.003.35-.01.482a4.63 4.63 0 0 1-.028.35h-5.935c.025.34.101.63.227.87.126.239.284.43.473.576.189.145.4.252.633.32.233.07.47.105.708.105.366 0 .693-.063.983-.19.29-.125.53-.295.719-.51l1.852 1.55c-.404.517-.93.914-1.578 1.191a4.986 4.986 0 0 1-1.976.416c-.718 0-1.363-.123-1.937-.369a4.14 4.14 0 0 1-1.464-1.04 4.684 4.684 0 0 1-.936-1.625c-.22-.636-.33-1.345-.33-2.126 0-.756.113-1.452.34-2.088a5.115 5.115 0 0 1 .935-1.645c.397-.46.863-.815 1.399-1.067a4.054 4.054 0 0 1 1.748-.378c.655 0 1.244.135 1.767.406.523.27.96.643 1.314 1.115.352.473.623 1.024.812 1.654.19.63.284 1.298.284 2.003zm-2.533-1.134a2.808 2.808 0 0 0-.151-.652 1.835 1.835 0 0 0-.33-.567 1.581 1.581 0 0 0-.54-.406 1.76 1.76 0 0 0-.756-.151c-.478 0-.856.17-1.134.51-.277.34-.44.762-.49 1.266h3.401zM116.578 77.7h-2.683l-3.572-9.922h2.872l1.456 4.592c.126.378.245.775.359 1.19.113.417.201.744.264.984a36.39 36.39 0 0 1 .624-2.174l1.455-4.592h2.797l-3.572 9.922zm13.285-4.952a6.18 6.18 0 0 1-.34 2.089 5.002 5.002 0 0 1-.936 1.634 4.162 4.162 0 0 1-1.427 1.059 4.287 4.287 0 0 1-1.795.378 4.187 4.187 0 0 1-3.204-1.436 5.002 5.002 0 0 1-.935-1.635 6.18 6.18 0 0 1-.34-2.089c0-.756.113-1.452.34-2.088a5.115 5.115 0 0 1 .935-1.645c.397-.46.87-.815 1.418-1.067a4.224 4.224 0 0 1 1.786-.378c.642 0 1.24.126 1.795.378.555.252 1.03.608 1.427 1.067.397.46.709 1.008.936 1.645a6.18 6.18 0 0 1 .34 2.088zm-2.646 0c0-.756-.151-1.389-.454-1.9-.302-.51-.768-.765-1.398-.765-.63 0-1.093.252-1.39.756-.295.504-.444 1.14-.444 1.91 0 .768.149 1.4.445 1.899.296.497.759.746 1.389.746.315 0 .589-.072.822-.217.233-.145.425-.34.576-.586.152-.246.265-.53.34-.85.076-.322.114-.653.114-.993zm12.642 0a6.18 6.18 0 0 1-.34 2.089 5.002 5.002 0 0 1-.936 1.634 4.162 4.162 0 0 1-1.427 1.059 4.287 4.287 0 0 1-1.795.378 4.187 4.187 0 0 1-3.204-1.436 5.002 5.002 0 0 1-.935-1.635 6.18 6.18 0 0 1-.34-2.089c0-.756.113-1.452.34-2.088a5.115 5.115 0 0 1 .935-1.645c.397-.46.87-.815 1.418-1.067a4.224 4.224 0 0 1 1.786-.378c.642 0 1.24.126 1.795.378.555.252 1.03.608 1.427 1.067.397.46.709 1.008.936 1.645a6.18 6.18 0 0 1 .34 2.088zm-2.646 0c0-.756-.151-1.389-.454-1.9-.302-.51-.768-.765-1.398-.765-.63 0-1.093.252-1.39.756-.295.504-.444 1.14-.444 1.91 0 .768.149 1.4.445 1.899.296.497.759.746 1.389.746.315 0 .589-.072.822-.217.233-.145.425-.34.576-.586.152-.246.265-.53.34-.85.076-.322.114-.653.114-.993zm9.977-1.928a2.996 2.996 0 0 0-.7-.463 1.87 1.87 0 0 0-.812-.18c-.252 0-.482.032-.69.095a1.132 1.132 0 0 0-.529.34 1.72 1.72 0 0 0-.34.662c-.082.277-.123.63-.123 1.058V77.7h-2.608v-9.922h2.608v.661c.227-.24.507-.444.841-.614.334-.17.734-.255 1.2-.255.429 0 .797.072 1.106.217.309.145.551.305.727.482l-.68 2.551zm9.637 3.988c0 .567-.107 1.05-.321 1.446a2.67 2.67 0 0 1-.87.964 3.685 3.685 0 0 1-1.285.53 7.354 7.354 0 0 1-1.569.16 8.217 8.217 0 0 1-2.277-.312c-.725-.208-1.351-.488-1.88-.841l.869-1.984c.529.29 1.074.513 1.635.67a6.65 6.65 0 0 0 1.805.237c.516 0 .866-.063 1.049-.19.182-.125.274-.314.274-.566 0-.227-.104-.41-.312-.548-.208-.139-.59-.29-1.144-.454a24.234 24.234 0 0 1-1.616-.539 5.294 5.294 0 0 1-1.238-.642 2.54 2.54 0 0 1-.784-.898c-.183-.353-.274-.794-.274-1.323 0-.517.098-.96.293-1.332.195-.372.47-.678.822-.917.353-.24.772-.416 1.257-.53a7.016 7.016 0 0 1 1.597-.17c.63 0 1.266.089 1.909.265.643.177 1.228.41 1.758.7l-.832 2.06a6.723 6.723 0 0 0-1.503-.596 5.583 5.583 0 0 0-1.389-.198c-.529 0-.885.053-1.068.16a.524.524 0 0 0-.274.482c0 .101.026.193.076.274.05.082.148.164.293.246.145.082.353.173.624.274.27.101.626.22 1.068.36.44.15.863.308 1.266.472a4.3 4.3 0 0 1 1.058.605c.303.239.542.532.718.878.177.347.265.766.265 1.257zm7.35 2.495c-.214.177-.504.321-.87.435-.365.113-.75.17-1.152.17-.404 0-.769-.073-1.097-.217a2.31 2.31 0 0 1-.831-.615 2.874 2.874 0 0 1-.53-.945 3.69 3.69 0 0 1-.188-1.21v-4.687h-1.664v-2.457h1.664v-2.551l2.608-1.304v3.855h2.381v2.457h-2.381v3.988c0 .48.082.797.246.955.163.157.403.236.718.236.24 0 .463-.057.67-.17.209-.113.476-.309.804-.586l-.378 2.646z"/>
        <g filter="url(#a)" transform="translate(30 30)">
            <mask id="c" fill="#fff">
                <use xlink:href="#b"/>
            </mask>
            <use fill="#FFF" xlink:href="#b"/>
            <path fill="#F3CE32" d="M22.184 39.799c.021-.31.298-.665-.064-.922-.347 2.095-2.002 3.256-2.37 5.332-.17.95-.102 1.653-.659 2.173.176 1.037-.637 1.42-.724 1.975.284.156.617.261 1.053.264 1.35.605 2.045 3.095 1.12 4.608.542.247 1.233.698 1.778.724-.512-.626-.786-1.309-.856-2.239-.277-3.625.583-6.948.722-10.138.028-.61-.035-1.223 0-1.777zm18.83-33.18c.173.02.215-.091.197-.264-.173-.02-.215.091-.198.264zm.066-1.186c.128.03.406.245.527.067-.027-.179-.46-.327-.527-.067zm.46 1.251c.207-.005.442.3.593.133-.301-.24.104-.422-.131-.724-.178.062-.378.106-.527.197.35.02.091.22.065.394zm.593-.922c.172.02.216-.091.198-.262h-.198v.262zm.922 9.744c-.06-.116-.024-.329-.133-.395-.317.245-.07.299-.329.527.263.065.2-.197.462-.132zm-.462-10.6c.317-.135.307.39.527.133-.156-.172-.306-.154-.198-.461h-.329v.329zm1.12 10.732c.162-.04.338-.403 0-.396.077.176-.126.389 0 .396zm.066-.592c.198.156.684-.029.46-.264-.004.238-.347.137-.46.264zm1.118-7.967c-.218-.382-.642.064-.856.264.067-.047.692-.098.856-.264zm-.262 4.938c-.027.204.316.268.329.066-.076-.055-.177-.087-.33-.066zm.329-7.175c.017-.173-.024-.284-.198-.264-.119.113.02.258.198.264zm-.527-.33c.039-.361.567-.542.724-.395-.013-.294-.318-.297-.264-.659-.247-.027-.232.206-.394.264.015-.124-.074-.145-.066-.264-.227.11-.485.043-.527.198.52-.104.177.674.527.855zm.198 9.875c.355.072.953-.068.921-.593-.287.091-.14-.254-.395-.196-.012.096-.159.06-.264.065.167.344-.499.293-.262.724zm.855-6.847h.198c-.008-.168-.013-.34-.198-.33.039.21-.123.205 0 .33zm.527 5.86c-.214-.276-.605-.072-.658.198.255.128.475-.067.658-.198zm-.066-5.596c-.046.287.48.394.395 0h-.395zm.526 3.488c-.31-.047-.388.138-.526.264.26-.004.45-.076.526-.264zm0 6.979c-.027-.225.026-.37.066-.527-.189-.1-.206.003-.46-.065-.041.404-.255.737-.527.724.126.027.052.255.263.198.166-.287.353-.294.658-.33zm.066-11.192c-.019.2.27.428.33.33-.084-.138-.17-.269-.33-.33zm.33 11.39c-.207.031-.175-.178-.33-.198-.112.222-.04.476.198.528.098-.057.095-.213.131-.33zm.395-8.69c-.014-.074-.074-.103-.131-.131-.236.445-.935.425-1.12.921.369.183.253.536.593.658-.19-.605.325-1.002.658-1.448zm-.263 11.718c.104.104.352.019.46-.065-.16-.038-.14-.256-.395-.198.015.124-.075.145-.065.263zm.33-3.687a.658.658 0 0 0 .394-.197c-.32-.097-.618-.217-.857-.396-.038.137-.138.213-.197.33.337.084.52-.084.79.066-.015.094-.109.11-.13.197zm.46-5.99c.09-.085.114-.394-.066-.395-.091.084-.115.394.066.395zm-.132-3.028c.084.089.322.1.33-.066-.085-.09-.323-.103-.33.066zm0 11.06c.172.018.284-.025.262-.198-.286-.094.126-.203-.064-.329-.085.158-.24.242-.198.527zm.46 2.369v-.263a.14.14 0 0 0 0 .263zm.264-1.975c.021-.154.129-.271 0-.394-.182.037-.369.069-.329.329.076.055.176.087.329.065zm-.264-1.054c.373-.164.454.08.66-.13-.383 0-.235-.42-.133-.594-.692.049-1.13-.484-1.778-.262.153.308.404.518.66.724-.02-.173.023-.284.197-.264.116.06.168.184.394.133-.128.123-.019.24 0 .393zm.66 3.358c.098-.099.276-.118.328-.263-.111-.192-.544-.051-.659-.066.125.097.079.362.33.329zm.262-9.216v-.263h-.329c.013.185.115.28.33.263zm.066 4.674c.03-.27-.236-.247-.263-.462-.385.092-.91-.112-.923.462.424.148.823.245 1.186 0zm.131-2.897c-.186.011-.153-.197-.328-.197-.173.13.24.526.328.197zm.659-3.028c-.368-.25-.532.192-.79.264-.207.032-.05-.303-.197-.33-.013.186-.314.082-.264.33.051.014.077.054.066.131.537.01.962-.091 1.185-.395zm-.198 16.525c.114-.107.061-.34-.065-.396-.09.085-.115.394.065.396zm0-10.271c.105-.013.345-.214.198-.263-.183.282-.481-.257-.527.065.102.073.137.215.329.198zm.133-2.897c.028-.124.14-.165.13-.329h-.263c-.075.193-.039.245.133.33zm-.265 7.242c.053.053.404.07.396-.132-.174.001-.389-.036-.396.132zm-.395-1.185c.32.098.44.395.922.33-.083-.264-.555-.037-.329-.462-.213.03-.569-.087-.593.132zm.79-4.938c.023-.175.165-.23.199-.395-.508-.474-.918.534-1.251.856.297.742 1.995.213 1.053-.46zm.199 7.308c.149.018.247-.015.262-.132-.088-.02-.125-.093-.262-.066v.198zm-.264 4.74c.211-.052.472-.055.395-.395-.257.006-.447.08-.395.396zm.526-3.292c-.2-.047-.239.068-.394.067.032-.208-.203-.15-.132-.396.047-.174.3-.14.329-.328-.438-.294-.618-.03-1.054.13-.097-.193.075-.244-.13-.328-.081.094-.252.15-.33.065.136-.238.254-.492.46-.658-.094-.082-.124-.227-.13-.396.212-.116.422-.234.525-.46-.46-.018-.788.358-1.053 0 .1-.098.278-.117.33-.264-.31-.21-.723-.095-.923.067.158.106.479.05.527.264-.055.076-.086.175-.065.329-.403-.12-.211.359-.526.328-.066-.176-.136-.346-.132-.592-.648.012-.493.823-.988.988.19.029.206.232.46.198-.02-.285-.004-.533.264-.528a.48.48 0 0 1 .198.132c-.006.39-.354.437-.658.527-.105.457-.347.405-.66.593-.089-.456.526-.781.265-1.515.329-.065.383-.408.79-.395.035-.233-.233-.162-.199-.396.078-.055.177-.085.33-.065-.084-.2.225-.336.066-.395-.42.062-.628.394-.987.198.222-.166.04-.346.065-.658-.567.047-.32-.457-.33-.857-.214-.049-.288-.238-.394-.394.167-.098.294-.234.526-.264.171.026.2.196.395.198.07-.195.38-.15.396-.396-.237-.282-.524-.382-.922-.197-.165-.116-.046-.108-.131-.263-.33-.023-.364.25-.725.198.043-.2.299-.184.395-.33-.208-.103-.289.037-.526.066-.065-.286-.365-.337-.33-.725.038-.204.31-.172.33-.395-.223-.062-.5-.071-.462-.394.223-.063.451.2.593 0-.143-.01-.14-.165-.131-.33.404.076.428-.228.856-.131.018-.26-.283-.202-.264-.46.201.046.194-.114.395-.067-.047-.245.113-.282.066-.527-.673.08-.396-.541-.264-.855.124.249.488.258.66.46.097-.076.16-.19.329-.197.035.205.443.038.395.328-.264.241-.313.407-.724.396v-.263c-.187-.055-.172.093-.33.065v.462c.635.539 1.667-.002 2.238.329.094-.362-.202-.286-.264-.33.338-.234.59-.826.989-.79.01-.163.012-.32-.132-.329-.156.494-.9-.107-1.317.33.007-.206-.207-.189-.131-.46-.303.004-.458.157-.724.197-.038-.118-.035-.274-.132-.33-.082.095-.252.1-.33.197-.013-.394-.383-.068-.46-.329-.065-.257.145-.381 0-.526-.358.201-.846.359-.725.855-.178.042-.32.32-.526.133-.04.137-.138.213-.198.329.46.22.92.44 1.317.724-.273.074-.257-.138-.462-.132-.163.078-.066.417-.262.46-.115-.005-.204.016-.264.067.209-.217-.255-.133-.198-.395.128-.093.404-.036.33-.33-.064-.089-.176-.132-.263-.197-.08.096-.252.1-.33.198.067-.22-.09-.217-.263-.198.015.125-.073.145-.065.263.192.05.323.159.46.264v.46c-.097.076-.166.076-.263 0-.189.328.108.485.197.724-.676.091-1.35.29-1.645.922-.11-.303-.221.057-.462 0 .221-.369-.201-.633.198-.855-.303-.04-.505.022-.593.197.26-.084.171.18.264.263-.159.083-.398.084-.526.197-.04-.136-.139-.212-.198-.328.091-.238.236-.422.527-.46-.3-.01-.416-.198-.658-.265.201-.193.65-.14.789-.395.026.194.31.129.395.264-.147.028-.064.36.066.329.137-.272.137-.452 0-.724.162-.145.491-.125.527-.396.196.046.22.263.198.527.386-.08.333.282.526.395.221-.307-.247-.536.065-.79-.211.015-.278-.116-.527-.065-.292-.705.638-1.236 1.251-1.25-.022-.659.835-.44 1.054-.857-.987-.158-1.438 1.087-2.502.856-.062.123.197.22 0 .263-.806-.226-1.193 1.067-1.909.724.053.278.224.435.462.526a.465.465 0 0 1-.133.198c-.228-.012-.292-.19-.394-.329-.01.078-.105.072-.197.066.032.23.433.092.329.46-.067 0-.08.055-.132.067-.113-.173-.505-.066-.66-.198.27-.273.117-.432-.064-.724.516-.022.988-.144 1.25-.329-.198.067-.116-.146-.132-.264.429.087.272-.341.396-.591.04-.086.243-.045.263-.133-.013.058-.265-.162-.263-.131-.015-.273.496-.322.526-.33.232-.055.136-.29.264-.592.068-.16.398-.248.131-.593.134.037.129.199.263.066v-.395c-.208-.032-.148.203-.394.133-.05-.238-.131-.441-.462-.396.094-.313-.183-.254-.262-.395.188-.03.362-.076.395-.263-.15-.09-.249.17-.264 0 .18-.175-.052-.168-.131-.263.192-.164.546-.502.724-.132-.096.08-.126.225-.133.395.436.158.333.853.922.856.013-.185.216-.181.264-.329-.286-.013-.12-.115-.133-.33.269-.017.448-.123.66-.197-.017-.241-.448-.414-.132-.593-.395-.058-.39-.257-.33-.659-.135-.083-.333-.104-.33-.329.1-.077.188-.164.265-.262.13 0 .083.18.263.13.036-.094-.076-.34.066-.328.091.152.43.4.593.263a1.061 1.061 0 0 0-.395-.263c-.01-.133.446-.305.131-.329 0 .268-.29-.152-.46-.133.18-.083.262-.264.394-.393.168.006.313.037.395.13-.028.126-.141.167-.131.33.44-.02.69-.23.79-.593-.278.008-.333.237-.528.33-.251-.53.477-.61.857-.724-.384-.057-.003-.343-.132-.462-.273-.074-.256.138-.46.133-.092-.267.141-.209.13-.396-.507-.305-.638-.985-1.58-.856-.189-.683-.944-.223-1.381-.065.004-.115-.016-.205-.067-.264-.244.04-.322.247-.591.264-.176-.22-.73-.062-.857-.33.016-.093.109-.111.133-.197-.212.058-.138-.171-.265-.197-.12.154.07.418 0 .724.44.047.126.182.33.329-.017-.134.24-.32.328-.132-.062.237-.558.516-.59.198-.174 1.254.053 2.907-.199 4.081.858-.446 1.54.2 1.316 1.251.339.013.473.231.66.396-.175.067-.223.26-.396.329-.142-.1-.184-.3-.329-.396v.33c-1.01.77-.65 3.251-2.502 2.962-.197 1.756-.79 3.116-.921 4.938.262.044.447.165.79.13.69.395 1.168.869 1.778 1.318.439.325.966.532 1.382.856.148.116.233.35.395.46 1.22.841 2.886 1.009 4.213 1.844.016-.269.284-.286.527-.33.009.414.284.425.13.856.604.256.98 1.077 1.516 1.186-.215-.286-.193-.637-.199-.988.2.193.56.117.594-.198-.39-.297-.517-.897.197-.593.155-.02.122-.228.33-.196-.038-.426-.021-.445.064-.79zm-.394-4.543c.272.076.256-.138.46-.131-.118-.236.011-.194.067-.395-.017-.181-.245-.15-.33-.263-.025-.157.3.036.197-.198-.124.016-.145-.074-.262-.066-.087.286-.403.344-.791.329-.162.089.119.199-.065.264-.207.032-.174-.227-.329-.066v.264c.261.09.553.148.723.329.066-.244.33-.633.66-.396a.926.926 0 0 0-.33.33zm.132-3.357c.185.216.677-.337.329-.46-.024.239-.283.244-.33.46zm.065 9.349h.33c-.023-.154-.043-.308-.264-.264-.02.09-.094.126-.066.264zm.33-7.439c.01-.166-.148-.16-.198-.264-.02.089-.094.126-.066.264h.264zm-.133 8.559c.084.09.394.114.395-.067-.115-.06-.192-.159-.328-.197-.021.09-.095.125-.067.264zm0-1.582c.103.015.309.254.395.067-.355-.07-.077-.441-.395-.46-.032.207.144.256 0 .393zm.067-13.693c-.054.314.551.458.657.198-.199-.086-.306-.264-.657-.198zm.46 3.49c.222.083.272-.334.132-.395.071.246-.164.188-.132.395zm.264 4.542c.01-.207-.169-.225-.33-.263-.009.163-.012.32.132.33.011-.078.104-.073.198-.067zm.131-2.435c-.116-.083-.475.01-.592.13-.13-.139-.021-.407.263-.328-.04-.136.107-.457-.131-.395-.141.145-.227.344-.462.395.116.015.15.113.133.263-.046.13-.368-.015-.395.132.43-.014.9.227 1.184-.197zm-.263 8.69c.348-.02.408-.52.132-.659-.047.207-.347.394-.132.658zm.527-9.415c-.029-.147-.325-.026-.462-.066-.033.4.42.365.462.066zm0 9.876c.001-.221 0-.44-.264-.395.013.207.047.392.264.395zm.065-6.716c.01-.264-.169-.174-.329-.131-.067.22.205.102.329.13zm-.46-8.492c.206-.08.273-.297.593-.264-.104-.455-.599-.001-.593.264zm.329 11.389c.003-.304.164-.45.526-.395-.183-.255-.359-.519-.592-.725.112.005.17-.05.197-.13-.473-.447-.857.075-1.25.262.263.403.896.029 1.053.528-.252.098-.69.012-.724.329.276.37.349.25.79.13zm.462-5.925a.304.304 0 0 1-.198-.067c0 .1-.245.27-.067.33v-.132c.15.02.248-.015.265-.131zm0 4.214c.013-.051 0-.13.064-.133-.044-.218-.168-.356-.46-.329-.056.12.04.545.396.462zm-.265 1.71c.098.106.376.098.33-.13-.164-.01-.32-.013-.33.13zm.46-10.599c-.233.057-.393-.19-.46.067.089.09.46.125.46-.067zm.133 16.985c.018-.26-.464-.019-.526-.197.18.01.225-.101.131-.198-.31-.067-.175.308-.461.264.074-.278.409-.294.395-.658-.426-.334-.957-.354-1.251.065.039.16.425-.03.395.198h-.658c-.106.188.231.4.33.593.01-.144.165-.141.328-.132.018.267.368.204.395.46.49.052.831-.046.922-.395zm.198-7.833c.02-.309-.305-.176-.33 0h.33zm-.133 1.053h.265c-.002-.37-.596-.162-.463.197.236.103.04-.224.198-.197zm.33-10.796c.042-.328-.631-.256-.528.065.25.05.316-.08.527-.065zm.066 3.62c-.002-.174.037-.387-.131-.394.04.135-.107.456.13.394zm.066 1.514c.265-.208.135-.424.263-.79-.44-.223-.722.23-.987.395-.136.025-.335-.36-.33-.066.222.196.364.471.394.857.433-.148.748-.006 1.055-.264-.168-.007-.315-.038-.395-.132zm-.462 10.994c.382-.098.741.462.989.066-.63-.008-.849-.424-1.054-.855-.246.239-.246-.072-.659 0-.014.336-.305.395-.329.724.177.047.61.45.724.131-.359.075-.365-.204-.592-.264.22-.065.276-.294.659-.196.02.088.094.126.064.263.16.027.145-.12.33-.067-.016.094-.108.112-.132.198zm.922-7.57c-.171-.02-.283.023-.262.198.112.118.258-.02.262-.198zm.067 1.316c-.327.041-.35-.221-.724-.131.078.18.69.516.724.13zm.13-1.91c.089-.68-.886-.573-1.317-.526.164.32.612.356.594.856h.264c-.143-.242-.113-.328.131-.46.017.137.289.018.329.13zm.132 7.375v-.462c-.199.042-.18.303-.329.396.16-.027.144.12.33.066zm.067 5.332c.034-.297-.262-.265-.264-.527h-.197c.089.24.284.375.46.527zm-.33-18.434c.181-.037.37-.069.33-.329-.085-.09-.312-.09-.396 0-.026.16.12.143.067.33zm.594 4.148c-.137-.239-.321-.128-.198-.526-.144-.035-.427-.16-.462.065.263 0 .195.333.198.592.186-.01.275-.12.462-.13zm-.067 10.402c-.152.02-.073-.19-.197-.197-.323.16-.776.189-.989.46.405-.097.46.156.725.197.192-.114.302-.312.461-.46zm0 4.213c.003-.124.146-.379-.066-.46-.07.19-.084.315.066.46zm.131-12.706a.523.523 0 0 0 .132-.658c-.098.011-.242-.023-.263.065.097.012.061.16.067.264-.155.02-.248.104-.462.066-.119.314.007.436.264.527.09-.19-.18-.335 0-.395.18-.049.131.13.262.13zm.265 7.374v-.33c-.481-.309-.784.24-1.186.396-.04.325.325.245.526.329-.032-.245-.373-.178-.197-.462.45.129.508-.127.857.067zm.262 2.04c-.255-.129-.41.029-.724-.065-.091.344.565.09.724.065zm0-13.364v-.132c-.066 0-.077-.054-.131-.066-.044.153-.219.177-.264.33.246.07.188-.164.395-.132zm.593 16.196c.026-.29-.259-.269-.462-.33-.034.288.284.459.462.33zm-.067-1.713c.29.093.392.004.594-.131-.407-.018-.472-.047-.856 0-.066.329.227.3.395.395.08-.213-.214-.05-.133-.264zm.265-16.26c-.242.022-.061-.378-.396-.263-.022.218-.19.291-.131.591.304.02.433-.137.527-.328zm.131.526c-.207-.032-.257.094-.396.133.045.175.028.41.133.526-.044-.383.2-.284.263-.659zm.264 16.92h-.33c-.027.303.28.15.33 0zm-.593-1.975c.293.001.91.24.987-.133-.293-.146-.666-.56-.987-.46.104.116.303.137.329.33.079.276-.278.116-.33.263zm.856 1.382c.247.05.32-.074.329-.264a.81.81 0 0 1-.46-.262c.008.281-.08.432-.198.724.084.09.286.065.46.065.048-.18-.13-.132-.131-.263zm.18-12.41c.03.032.077.046.149.033a1.195 1.195 0 0 0-.148-.033c-.07-.068-.052-.223-.05-.362-.24.008-.506-.2-.46-.658-.259-.093-.425-.278-.46-.593-.234-.034-.164.234-.396.198-.285-.104-.035-.39-.395-.46.236.017.316-.122.526-.132-.03-.234-.117-.41-.264-.527.024.281-.233.504-.789.527.004.238.165.318.198.527-.194.004-.245.15-.33.262.277-.08.355.033.592.132.032.207-.164.186-.262.264.037 1.015 1.379.709 2.09.822zm.215 9.777c.085-.203-.187-.374-.264-.197.127.026.052.254.264.197zm-.132-2.832c.504-.022.212-.84.46-1.118-.117-.123-.403-.079-.46-.264-.06-.322.052-.475.196-.591-1.068-.066-1.223-1.347-2.368-1.12-.096-.384-1.033-.455-1.25-.131.123.385.947.327 1.183.393-.207-.031-.05.303-.197.33-.494-.054-.767-.228-1.12-.197.014.25.41.118.396.394-.509.02-.77.283-1.185.396.206-.404-.36-.165-.329-.527-.215-.017-.318.079-.33.264.041.091.254.01.264.131-.138.172-.414.55-.658.396.181-.082.209-.32.329-.462-.117 0-.383.178-.46 0 .041-.179.449-.19.262-.395-.251.034-.354.216-.593.264-.054.321.19.298.264.329.003.678.7.66.724 1.317-.143-.013-.21.054-.197.197.506.064.794.346.79.922.052-.235.323-.249.394-.461-.163.01-.32.012-.329-.132.027-.413.318-.56.725-.593-.195.112-.006.61-.33.593-.031.412.164.719-.066.987-.137.144-.188-.032-.393 0-.016.124.073.145.064.264h.527c.11-.308.634-.2.593-.658.156.129.437.133.593.263.318-.336.49.052.855.197-.155 0-.193.114-.395.067.19.46.604-.035.855.394-.074.734.555.763 1.054.922-.1-.415-.087-.367.066-.725-.28-.081-.176.22-.329.264a1.276 1.276 0 0 0-.264-.328c-.02-.35.234-.425.33-.66.021-.174-.369.062-.263-.198.172-.17.051.107.262.067.162-.155-.098-.123-.065-.33h.395V26.5c-.194.047-.287.196-.592.132-.096-.102-.138-.257-.198-.395.34.076.069-.457.329-.462.113.218.445.215.461.527zm.394-4.608c-.21.057-.203-.104-.328-.131-.187.157-.066.242-.066.527h.263c-.053-.229.073-.278.131-.396zm0 .724c-.282.042-.268-.214-.526-.197-.032.253.23.21.132.526.238-.001.212-.27.394-.329zm.133 6.519c.018-.173-.025-.284-.198-.264.034.207-.154.27.065.329.016-.052.056-.077.133-.065zm.46-7.374c-.022-.242-.076-.452-.197-.593-.245-.07-.104.247-.33.197-.01-.075-.103-.071-.197-.064-.017-.204-.142-.298-.197-.462-.813.076-1.346-.788-1.976-.46.563.068.79.692.857 1.053.374.35.62.037 1.053.329-.005-.246-.05-.532.263-.46-.083.37.368.28.461.13 0 .197.118.277.263.33zm.067-6.715c-.151-.069-.398-.042-.527-.132-.055.077-.087.177-.067.33.15-.115.552.025.594-.198zm0 16.92h-.462c-.047.311-.27.108-.526.13-.104.226-.052.418 0 .593.396.024.527-.218.526-.593.187-.01.452.057.462-.13zm.262-1.318v-.395c-.738-.338-1.253-.896-2.173-1.053-.051.015-.13.002-.131.066.625.297.954.89 1.844.922a.656.656 0 0 0 .46.46zm-.197-19.947c.186-.054.171.092.328.066-.111-.107-.069-.37-.262-.395.026.16-.12.142-.066.329zm.461 24.424v-.263c-.099.011-.243-.023-.264.065.089.067.13.178.264.198zm-.133-20.276c.03-.249.276-.28.133-.527-.123-.063-.22.196-.264 0v-.461c-.207.031-.15-.202-.395-.132-.351.568-.145 1.193.526 1.12zm.264 9.018c.052-.314-.269-.257-.526-.262.006.257.357.17.526.262zm-.395-1.448c.062.23.443.398.593.329-.135-.172-.344-.27-.593-.33zm1.186-7.307v-.263c-.158.043-.514.228-.33.395-.066-.222.206-.104.33-.132zm.592-.198v-.198c-.147-.152-.256.024-.46 0 .027.192.297.343.46.198zm-.263-.725c.02.245.094.433.396.396-.024-.24-.227-.302-.396-.396zm.724-3.817c-.237-.445-.89.02-.66.395.159-.336.45-.13.66-.395zm.33.527c.045-.227-.33-.37-.462-.198.201.075.207.346.461.198zm.46 21.461c-.014-.124.074-.145.066-.264-.394-.022-.639-.194-.79-.46-.175 0-.388-.037-.394.132.384.33.565.487 1.118.592zm-.198-24.16c.19.012.36.007.33-.198-.19-.082-.3-.033-.33.197zm.395 24.423c.237-.07.575-.039.593-.329-.253.054-.586.03-.593.33zm.396-22.25a.428.428 0 0 0 .066-.33h-.198c-.01.163.033.272.132.33zm.197 9.281c-.164-.252-.09-.744-.264-.988-.159.194-.39.313-.658.395.049-.302.14-.562.395-.657-.077-.1-.19-.162-.197-.33.158-.084.268-.215.262-.461-.214-.026-.425-.057-.46-.263h.33c.08-.543-.154-.768-.132-1.25-.196-.112-.391-.224-.593-.33.135-.106.474-.01.462-.263-.332.012-.895.286-1.12-.198h-.395c.052.392-.406.1-.527.066-.278.477-.663-.18-1.053.198-.007-.08-.02-.156-.131-.133.264.351-.125.722-.594.725-.063.239.296.055.264.264-.168.006-.13.22-.132.395.261.847.508 1.657.724 2.435.37 1.334 1.217 2.23 1.844 3.293.287.082.293.019.527-.067-.049.731.17 1.258.658 1.844.61-1.211.312-3.331.79-4.675zm.066-6.385c-.418.048-.89-.274-.856.263.342-.135.392-.122.659.066.13-.046.175-.176.197-.329zm0 16.26c.38.096-.014.565.33.659-.021-.819-.535-1.565-.858-2.304-.152-.351-.22-.88-.46-1.186-.358-.452-1.318-.549-1.908-1.053-.433-.37-.993-.762-1.58-.856-.007.192-.083.248-.133.527.118.168.24.33.329.526-.182.103-.104.466-.46.395-.14.404.325.202.263.527-.012.098-.16.06-.264.066.193.495-.442.627-.592.988.114.346.628.294.856.526-.066-.262.197-.198.132-.46-.245-.042-.677.106-.724-.133.381.119.258-.268.46-.329.343.017.498.159.395.462.086.132.349.09.396.262-.235.177.134.3.064.527-.33-.018-.58.123-.79-.263-.018.134-.177.129-.197.263.21.033.27.214.33.395.247-.048.423-.092.526.132.013.31.267.503.264.79.278-.116.307-.484.592-.593.087.236-.004.242.066.462.563-.075.838-.437 1.515-.395.065.197.232.292.198.592.203.007.186-.207.46-.132.158.265.442.266.395.593.25-.014.228-.299.33-.46-.201.002-.435.037-.396-.198.115-.15.4-.127.461-.33zm.197-20.803v-.396c-.125.016-.145-.074-.263-.064-.133.165-.076.562.263.46zm-.46 3.621c.201.007.574.317.592-.066-.347-.213-.76.005-1.185-.066.2.334-.308.525-.592.592.039-.243.108-.381-.066-.526.2-.062.265-.261.593-.198.023-.282.176-.437.197-.724-.286-.044-.178.305-.197.526-.159-.026-.144.12-.33.067-.225-.083-.307-.307-.263-.658.088.02.125.092.264.065.018-.15-.017-.248-.133-.263.053.25-.31.083-.46.131.188.316-.306.237-.264.594.326.418.32 1.173.79 1.448.259-.4.592-.724 1.054-.922zm.592 20.342c.038-.266-.27-.209-.329-.066.076.055.176.087.33.066zm0-20.606c.028-.126.188-.119.132-.329-.273.009-.412-.115-.724-.066-.252.417.445-.038.592.395zm-.132 18.698c.174.199.709-.177.33-.33-.097.122-.362.078-.33.33zm.461-23.372c-.18-.047-.132.131-.264.132-.04-.019-.253-.164-.262 0 .127.027.051.255.262.197.055-.143.25-.145.264-.33zm-.526 50.297c.423-.883.596-2.53.526-3.555-.137-1.992-1.318-4.37-2.239-5.53-.48-.605-1.28-1.018-1.777-1.448-.27-.007-.539-.014-.724.065-.97-.763-2.229-1.239-3.884-1.316-.636-.591-1.93-.576-3.095-.462-1.563-1.574-2.785-3.49-4.806-4.608-.172.951-.133 1.948-.197 2.964-.055.895-.381 1.807-.329 2.501.058.755.703 1.269.461 2.107.82-.563 1.19-1.576 2.305-1.844.047.435.106.86.131 1.317-.56.56-1.069 1.17-1.515 1.842.329.817.651 2.43.133 3.293-.293.058-.683.02-.856.197-.102.313.21.426.263.856.084.688-.37 1.672.264 1.975.352-.897.604-1.898 1.25-2.502 1.167-.084 2.277-.225 3.423-.329.846.954 1.51 2.089 2.239 3.16-.332 1.226-.654 2.463-1.25 3.423-1.151.048-2.496.812-3.556.396-.783-.307-1.207-1.74-1.777-2.173.047 1.41.16 3.24.527 4.543.399.065 1.033.16 1.25-.133.889.8 2.13 1.251 3.753 1.318.537 1.087 2.344.623 3.555.198 2.075-.73 4.1-2.565 5.134-4.017-.233-1.176.524-1.682.79-2.238zm.526-39.04c-.106-.31.38-.631 0-.79-.016.117-.113.15-.264.132.012.297-.022.638.264.658zm.132-2.173c-.137.04-.433-.08-.46.067.248-.095.125.18.328.131-.019-.129.089-.13.132-.198zm.724-4.08c-.141-.08-.082-.358-.395-.264.027.444-.435.56-.46 1.12.262-.066.197.196.46.131.176-.2.113-.38 0-.593.07-.193.25-.276.395-.395zm-.264-4.675c-.036-.401.158-.078.462-.263-.258-.294-.613-.178-.989-.264.19.163.311.393.527.527zm-.065 2.041c.065.265.12.538.46.527-.088-.219-.062-.552-.329-.593-.013.053-.055.077-.131.066zm1.25.395c-.015-.117.067-.33-.13-.264-.021.09-.095.126-.067.264h.198zm.198 0c.09-.084.101-.322-.066-.328-.09.082-.101.322.066.328zm.198 2.37h-.462c-.05.294.354.13.33.395-.212-.014-.279.117-.527.066 0 .51-.607.836-.922.46-.126.706-1.027.277-.987 1.186a.31.31 0 0 0-.197.065c.201.333-.124.905-.132 1.25.416-.314.776.23 1.25 0 .029.128.025.284.199.265.177-.196.315-.43.395-.724-.198-.242-.547-.332-.791-.527.478.08.702-.128.987-.066.361-.715.696-1.454.857-2.37zm-.395 22.45c.35.315.631.77 1.053.79-.67-.955-1.243-2.007-1.909-2.963-.568-.12-1.228.048-1.514.197.3.227.614.44.987.593.359.603.884.933 1.383 1.383zm.789-25.675c.104-.123-.029-.408-.196-.462-.035.098-.098.166-.133.264.137.039.213.138.329.198zm.198 6.254c.11-.261-.089-.554-.263-.724-.06.114-.23.12-.33.197.073.314-.083.399-.197.527h.33c-.019-.15.015-.247.131-.264.048.15.197.198.329.264zm0 16.721c-.078.196.277.284.329.131-.125-.027-.165-.14-.33-.13zm.264-15.997c.029-.13.244-.407.065-.526-.104.225-.304.352-.46.526h.395zm.197-.988c-.291-.006-.322.249-.461.395.224-.06.335-.235.461-.395zm-.328-.197c.256-.281.472.1.724-.066-.282-.18-.462-.237-.791-.461-.202.21.11.276.067.527zm.789 36.8V66H0V54.348c4.194.085 8.78.128 12.968 0-.989-1.83-2.296-3.24-2.83-5.398-.524-2.122-.597-4.357-.33-6.65.233-1.994 1.436-4.037 2.436-5.596.56-.87.873-1.804 1.383-2.633 2.552-4.148 5.666-8.333 9.546-10.6 1.186-.359 2.416-.274 3.357-.724.936-.445.822-1.549 1.449-2.304.978-.034 1.52.367 2.37.462-.004-1.621-.948-2.301-.988-3.885-.097-.155-.174.26-.46.132-.365-.205-.599-.411-.791-.79-.632-1.247-1.43-2.238-1.382-3.884.156-.173.26-.396.526-.461.29-.025.339.189.593.197-.21-1.542-.57-3.696-.13-5.266.047-.298-.182.1-.134-.197.08-.273.337-.367.462-.593-.169-.051-.303.258-.395.066.174-.155.247-.412.395-.593-.1-.01-.243.023-.264-.065.209.01.22-.176.462-.133.072-.337-.46-.413-.331-.591.08.119.344.05.462.13-.03-.3-.474-.531-.395-.723.14.058.195.2.395.198.056-.154-.231-.284-.067-.33.06.038.244.271.264.132-.12-.185-.18-.434-.264-.658.117.058.192.159.33.196.026-.226-.285-.455-.132-.591.283.11.362.428.79.395a7.482 7.482 0 0 0-.395-.922c.216.113.278.379.46.527.015-.302-.254-.664-.13-.856.145.271.236.597.46.79-.002-.258-.038-.382.197-.263.043-.353-.085-.877.066-1.12-.005.246.028.455.132.593.044-.177.028-.412.133-.526-.012.163.033.272.13.329.127-.314.073-.808.263-1.054.043.351-.085.877.067 1.118.087-.22.08-.533.198-.724.043.288-.086.745.064.922.052-.169.067-.373.198-.46.022.262-.117.365-.065.658.42-.28.52-.884.856-1.251-.054.297-.191.511-.264.79.113.173.348-.436.461-.264-.063.136-.135.262-.197.396.414-.2.74-.49 1.184-.658-.135.215-.34.36-.526.527.457-.158.77-.46 1.185-.66-.034.098-.097.166-.132.264.257.013.477-.354.659-.197-.06.019-.289.178-.133.197.18-.171.469-.235.725-.329-.02.134-.179.129-.198.263.506-.154.985-.33 1.713-.263-.03.19-.284.155-.33.33.24-.045.479-.093.79-.067-.011.207-.354.084-.33.329 1.037.016 1.56.185 2.436.066-.278.138-.582.252-.723.527.336.124.878.042 1.316.066-.077.163-.404.079-.329.395.057.228.426.144.527.33-.356.216.197.269.263.46-.099.01-.243-.024-.263.066.369-.018.418.283.658.395.076-.152.197-.014.526-.132.076.378-.038.555 0 .724.125-.094.286-.152.462-.198-.118.48.7.54.329.857.264.022.319-.165.46-.264-.211-.227-.402-.476-.46-.855.261.3.48-.11.724.13.004-.2-.238-.157-.197-.394.168-.007.23-.12.328-.198.22.068.206.365.527.33.078-.164.19-.293.329-.395.213.413.032.799 0 1.12.209.097.307.308.526.393-.414-.02-.63.192-1.053.264.344.174.718-.047 1.053.065.083-.197-.03-.329.264-.394.494.122.8.004 1.053-.264-.243-.164-.355-.05-.724-.065-.37-.42-.82-.76-1.12-1.252v-.393c.315-.017.276-.385.725-.265.032-.207-.093-.257-.132-.395.053-.167.404-.034.396-.263-.02-.286-.248-.367-.264-.657.297.233.596-.415.988.064-.14-.368.368-.533.065-.658-.142.213-.546.502-.723.132.204-.386.47-.651.527-.856.566-.119.326.502.526.593.26-.022-.049-.204.132-.264.102.096.307.089.395.198-.026.18-.304.28-.132.46.317.114.409-.26.724-.198-.3-.284-.513-.65-.46-1.118h19.618V12.61c-.382.124-.544.468-.79.725.064.001.051.08.065.13.197.071.423-.118.725-.13v1.053c-.321.1-.248-.19-.46-.198-.004.065-.082.051-.133.066.029.324.44.263.593.46v2.371h-.065c-.324.116-.168.416-.33.593.122.053.241.11.395.131v.658c-.405-.431-.946-1.347-1.778-.922-.159.259.46.416.264.725-.178-.064-.339-.145-.527-.197-.335.783-.597 1.642-1.25 2.107-.256 2.114.005 3.941-.725 5.53.648 1.085.908 2.558 1.711 3.488.143-.055-.024-.419.132-.46.202.217.347-.263.526-.066-.164.277.165.316 0 .593-.283.2-.226-.053-.658 0 .078.273.104.598.33.724-.04-.347.058-.557.328-.593.028.193.173.267.264.395-.358.046.035.651-.197.922-.067-.043-.068-.152-.198-.131.216.398.74.489 1.053.789-.123.163-.371.2-.329.526.212.014.108-.287.33-.262.136.126.319.207.46.329a.934.934 0 0 0-.197.46c.302.091.195.453 0 .593.203.169.25.496.46.658v3.885c-2.071-1.9-4.048-3.896-6.65-5.267-.208.203-.46.02-.788 0a.563.563 0 0 0-.264-.593c-.064.332-.133.658-.263.922-.204-.062.057-.545-.066-.527-.304.091-.344.446-.724.46-.085.378.164.596-.33.725.074.168.51-.027.594.132-.408.263.57.922.855.725.057.254-.11.284-.198.393.045.154.346.05.264.33-.077.01-.056.12-.066.197-.613-.029-.753.286-1.251 0 .166-.185.246-.455.593-.46-.052-.123-.11-.241-.132-.396-.263.146-.482-.23-.923-.262-.176.243.046.812-.46.856.074-.294-.201-.237-.328-.33.237-.113.244-.457.658-.395-.002-.196-.31-.084-.396-.197.07-.318.118-.269.067-.659-.264.151-.867.172-.987.263.034.252.387.184.658.198-.305.004-.24.376-.396.526-.262-.036-.198-.036-.46 0-.055-.236.148-.317 0-.46-.194.048-.323.16-.462.263.129.09.347.093.396.264.073.207.005.15 0 .395.605.821 1.014 1.838 1.12 3.16.68.702 1.55 1.213 1.908 2.237.373.089.681.242 1.053.33.288.82.53 1.513.988 2.305.283.488.47 1.088.725 1.448.241.343.767.537 1.053.92.155.21.181.475.329.66.153.19.347.22.526.395.548.534.556 1.3.79 2.171.385.581 1.125.808 1.12 1.779.192.378.577.564.592 1.119.279.182.647.274.856.526z" mask="url(#c)"/>
        </g>
        <path fill="#F9CF39" d="M95.175 59.858c.047.158.03.242.065.527-.306.178-.502-.04-.723-.133-.053-.226.072-.277.13-.394.196.24.195-.048.528 0M94.648 60.45c.138.173.255.057.396.133-.003.239-.194.288-.462.262-.057-.052-.039-.18-.132-.197.007-.125.217-.046.198-.198M93.002 44.567v-.32c-.206-.037-.294.07-.264.32h.264zm.46-.56c.07.302-.285.364 0 .48-.377.443-1.144.572-1.645.239.137-.15.34-.094.198-.399.327-.13.391.3.592.08-.028-.125-.208-.068-.132-.319.419.228.538-.405.987-.08zM91.62 63.94c-.044.307-.383.32-.462.591-.22-.04-.224-.192-.46-.064 0-.483.548-.418.922-.527M91.356 82.57c.175.888.264 2.113-.065 2.963-.333.859-1.392 1.11-2.108 1.711-.786-.77-1.423-1.692-2.369-2.304.123-1.164.277-2.777-.133-3.752.785-.466 1.47-1.033 2.305-1.45.703.533 2.111 1.523 2.37 2.832M89.907 64.927c.118.109.483.095.462-.131-.187.01-.452-.057-.462.13zm.462-.198c.155-.02.247-.104.46-.065-.034.293-.391.267-.395.591-.174 0-.387.038-.394-.13-.121.142-.203.324-.33.46-.63.016-.85-.139-1.448-.065.162-.29.585-.55.987-.395.189-.01.12-.276.132-.46.189.007.12.273.133.46.117.008.137-.08.262-.067-.038-.213.046-.306.066-.46-.066-.186-.28.018-.395 0-.032-.455.2-.318.46-.396.051.06.072.15.067.265.123-.053.24-.111.395-.132.033.206-.144.257 0 .394zM90.632 47.613c.045.243-.104.291-.33.264.022-.176.173-.223.33-.264M90.105 63.611c.217.206.341-.342.66-.066-.107.09-.21.186-.331.262-.468-.224-.471.285-.987.198-.051-.336.093-.478.067-.79.166.008.13.22.13.396.28-.116.324-.466.79-.396v.198c-.044.13-.391-.041-.329.198M90.632 48.14c-.486.204-.118.523-.79.592v-.395c-.419.322-.847-.05-1.317-.066.03-.315-.138-.432-.263-.592.182-.106.457-.158.658-.066.057.21-.103.203-.13.329.153.066.292.145.393.264.311-.129.287-.59.857-.462-.159.49.431.227.592.395"/>
        <path fill="#F9CF39" d="M89.578 48.601c.092.083.03.322.198.329-.147.138-.358.213-.46.395-.088-.023-.104-.116-.198-.133.091-.171.13-.395.198-.59h.262M89.052 47.613c.225-.028.374.02.329.264-.281.081-.437.005-.329-.264M89.183 64.269c-.02.286-.263.35-.526.395-.219-.268.151-.447-.33-.526.052-.06.071-.15.067-.264.486-.04.59-.053.789.395M88.657 65.717c.117.058.167.184.395.132 0 .307-.187.428-.395.526-.187-.297.164-.384 0-.658M88.525 66.442c.001.154-.113.193-.066.395-.353-.047-.288.325-.592.329-.114-.419.407-.748 0-1.053.208-.122.244-.415.592-.396.1.384-.165.405-.263.593.017.136.29.018.33.132M88.46 62.887c.007.291-.344.058-.395 0 .008-.2.293-.078.394 0M87.143 64.335c.052.228-.098.253-.066.46-.271-.058-.432-.226-.46-.526.157.04.299.094.526.066M86.681 64.796c.095.087.095.372 0 .46-.237-.133-.211.115-.394.197-.284-.048.096-.355-.263-.328.013-.316.286-.373.657-.33M86.024 54.92c.258.05.197.417.329.593-.042.14-.406.062-.46 0-.086-.326.158-.323.13-.593M85.563 56.566c-.027.127-.345.561.065.527-.202.098-.515.157-.724.066.21-.207-.102-.356.197-.593.24.014.253.09.462 0M84.246 55.973c.148.072.122.318.395.264-.073.3-.173.574-.593.527-.052-.339.054-.517.198-.658-.048-.15-.37-.026-.526-.067v-.46c.323.06.25-.276.526-.264-.03.194.257.445 0 .658"/>
        <path fill="#F9CF39" d="M83.456 56.106c.246-.07.187.163.395.131-.097.09-.202.307-.076.45-.064-.05-.29-.066-.516-.12-.07-.29.223-.217.197-.461M83.588 53.867c.028.225-.197.198-.264.329-.237-.12.116-.181.067-.33h.197M82.402 54.591c.208.073.15.006.396 0-.311.172-.491.474-.856.593.083-.268.48-.221.46-.593M79.703 55.58c-.145.035-.093-.126-.196-.133.016.211-.04.291-.066.724-.156-.001-.194.113-.396.066.113.16.394.398.197.658-.558.007-.172-.525-.657-.593.107-.287.249-.54.263-.92.265.336.754-.373.855.197M78.256 47.81c.09-.1.34-.186.46-.066-.001.192-.372.156-.46.066M76.017 51.365c-.056.013-.062-.025-.066-.065-.244.02-.237.29-.592.197-.04-.117.192-.273 0-.33.152-.175.474-.308.724-.197-.19.155-.194.199-.066.395M75.688 51.958c-.185-.245.14-.572.395-.395-.122.14-.079.448-.395.395M75.226 51.63c.226.016.135.348.33.393-.326.136-.458.464-.921.462-.05-.357.355-.26.262-.658.207.03.27-.083.33-.198M75.359 49.588c.074.207-.104.16-.133.264.084.026.136.084.133.196-.206.07-.608.455-.724.198.156-.184.239-.246.065-.46.237-.049.333-.238.659-.198M74.832 38.199c.2-.049.194.113.394.065-.316.582-1.028.36-1.58.528.06-.118.185-.169.133-.396.575.049.398-.655.987-.592.045.3-.198.544-.395.395-.057.21.103.203.132.329.173-.046.138-.3.33-.33M75.292 38.988c-.008.41-.258.575-.657.593-.125-.36.1-.32 0-.658.326.049.421.028.657.065M73.78 42.214c.198-.001.063.332.261.33-.061.266-.475.183-.723.263-.124-.126.038-.119 0-.329.24-.001.352-.13.461-.264"/>
        <path fill="#F9CF39" d="M73.318 37.935c.3-.16.634-.37.988-.131-.107.346-.355.291-.724.264-.107.19.121.17 0 .46-.24.047-.356.216-.593.264.044-.351.425-.366.329-.857M73.844 41.885c.011.165-.104.205-.132.33-.075-.056-.176-.087-.328-.066.01-.077-.015-.117-.066-.132.088-.207.373-.349.526-.132M73.384 40.108c.098-.217.16.136.328.066-.016.301-.07.318 0 .592-.208-.165-.576-.17-.526-.592.044.129.429.044.198-.066M73.055 41.16c.277.06.193.335.527.199-.008.41-.324.51-.725.526.003-.112-.05-.17-.131-.198a.68.68 0 0 0 .329-.526M73.384 39.91c-.342.257-.708-.32-.593-.527.303.071.31.437.593.527M73.186 43.927v.197c-.076.055-.176.086-.329.065-.045-.243.104-.29.33-.262M72.66 44.255c.199.12-.401-.012-.264.263-.265-.068.001-.333.264-.263M72.593 37.343c-.106.2-.153.46-.46.46.053-.254.287-.327.46-.46"/>
    </g>
</svg>
