{
    "name": "Zaaksysteem",
    "saas_range": "10.44.0.1\\d+",
    "otap_ip": "10.44.0.11",
    "invoke_assets_minified": "0",
    "libreoffice_version": "3",
    "default_customer": "dev.zaaksysteem.nl",
    "experimental_caching_disabled": "0",
    "platform_allowed_from": "127.0.0.1,10.44.0.0/24",
    "platform_api_key": "abcdefghijklmnopqrstuwv1234567890",
    "zs_platform_key": "abcdefghijklmnopqrstuwv1234567890",
    "otap": "development",
    "import_home_directory": "/home/zaaksysteem",
    "disable_xml_compile_preload": "1",
    "Queue": {
        "garbage_collect_days": "1",
        "cleanup_days": "60"
    },
    "Transaction": {
        "transaction_maximum_age_days": "60"
    },
    "Sysin": {
        "mijnoverheid": {
            "api_whitelisted": "1"
        },
        "email": {
            "api_whitelisted": "1"
        },
        "kcc": {
            "api_whitelisted": "1"
        },
        "next2know": {
            "api_whitelisted": "1"
        },
        "overheidio": {
            "api_whitelisted": "1"
        },
        "qmatic": {
            "api_whitelisted": "1"
        },
        "stuf_dcr": {
            "api_whitelisted": "1"
        },
        "stufconfig": {
            "api_whitelisted": "1"
        },
        "supersaas": {
            "api_whitelisted": "1"
        },
        "xential": {
            "api_whitelisted": "1"
        }
    },
    "Log4perl": {
        "file": "/etc/zaaksysteem/log4perl.conf",
        "options": {
            "autoflush": "1",
            "watch_delay": "60"
        }
    },
    "google_api_key": "nonexistent",
    "Plugin::Session": {
        "cookie_expires": "0",
        "cookie_secure": "1",
        "cookie_httponly": "1",
        "redis_server": "redis:6379",
        "redis_reconnect": "1",
        "redis_debug": "0"
    },
    "Plugin::Cache": {
        "backend": {
            "class": "Cache::Redis",
            "server": "redis:6379",
            "default_expires_in": "3600"
        }
    },
    "Search::Elasticsearch": {
        "BAG": {
            "nodes": "[ es-bag:9200 ]"
        },
        "Object": {
            "nodes": "[ syzygy-index:9200 ]"
        }
    },
    "Plugin::Zaaksysteem::Filestore": {
        "name": "LocalUStore",
        "class": "Zaaksysteem::Filestore::Engine::UStore",
        "constructor_arguments": {
            "accelerated_download_root": "/opt/filestore"
        }
    },
    "Model::Queue": {
        "host": "message-queue",
        "channel": "1"
    }
}