[{

    "code": 1,
    "label": "Eenmanszaak",
    "active": 1
  },
  {

    "code": 2,
    "label": "Eenmanszaak met meer dan één eigenaar"
  },
  {

    "code": 3,
    "label": "N.V./B.V. in oprichting op A-formulier"
  },
  {

    "code": 5,
    "label": "Rederij"
  },
  {

    "code": 7,
    "label": "Maatschap",
    "active": 1
  },
  {

    "code": 11,
    "label": "Vennootschap onder firma",
    "active": 1
  },
  {

    "code": 12,
    "label": "N.V/B.V. in oprichting op B-formulier"
  },
  {

    "code": 21,
    "label": "Commanditaire vennootschap met een beherend vennoot",
    "active": 1
  },
  {

    "code": 22,
    "label": "Commanditaire vennootschap met meer dan één beherende vennoot"
  },
  {

    "code": 23,
    "label": "N.V./B.V. in oprichting op D-formulier"
  },
  {

    "code": 40,
    "label": "Rechtspersoon in oprichting"
  },
  {

    "code": 41,
    "label": "Besloten vennootschap met gewone structuur",
    "active": 1
  },
  {

    "code": 42,
    "label": "Besloten vennootschap blijkens statuten structuurvennootschap"
  },
  {

    "code": 51,
    "label": "Naamloze vennootschap met gewone structuur",
    "active": 1
  },
  {

    "code": 52,
    "label": "Naamloze vennootschap blijkens statuten structuurvennootschap"
  },
  {

    "code": 53,
    "label": "Naamloze vennootschap beleggingsmaatschappij met veranderlijk kapitaal"
  },
  {

    "code": 54,
    "label": "Naamloze vennootschap beleggingsmaatschappij met veranderlijk kapitaal blijkens statuten structuurvennootschap"
  },
  {

    "code": 55,
    "label": "Europese naamloze vennootschap (SE) met gewone structuur",
    "active": 1
  },
  {

    "code": 56,
    "label": "Europese naamloze vennootschap (SE) blijkens statuten structuurvennootschap"
  },
  {

    "code": 61,
    "label": "Coöperatie U.A. met gewone structuur"
  },
  {

    "code": 62,
    "label": "Coöperatie U.A. blijkens statuten structuurcoöperatie"
  },
  {

    "code": 63,
    "label": "Coöperatie W.A. met gewone structuur"
  },
  {

    "code": 64,
    "label": "Coöperatie W.A. blijkens statuten structuurcoöperatie"
  },
  {

    "code": 65,
    "label": "Coöperatie B.A. met gewone structuur"
  },
  {

    "code": 66,
    "label": "Coöperatie B.A. blijkens statuten structuurcoöperatie"
  },
  {

    "code": 70,
    "label": "Vereniging van eigenaars",
    "active": 1
  },
  {

    "code": 71,
    "label": "Vereniging met volledige rechtsbevoegdheid"
  },
  {

    "code": 72,
    "label": "Vereniging met beperkte rechtsbevoegdheid"
  },
  {

    "code": 73,
    "label": "Kerkgenootschap",
    "active": 1
  },
  {

    "code": 74,
    "label": "Stichting",
    "active": 1
  },
  {

    "code": 81,
    "label": "Onderlinge waarborgmaatschappij U.A. met gewone structuur"
  },
  {

    "code": 82,
    "label": "Onderlinge waarborgmaatschappij U.A. blijkens statuten structuuronderlinge"
  },
  {

    "code": 83,
    "label": "Onderlinge waarborgmaatschappij W.A. met gewone structuur"
  },
  {

    "code": 84,
    "label": "Onderlinge waarborgmaatschappij W.A. blijkens statuten structuuronderlinge"
  },
  {

    "code": 85,
    "label": "Onderlinge waarborgmaatschappij B.A. met gewone structuur"
  },
  {

    "code": 86,
    "label": "Onderlinge waarborgmaatschappij B.A. blijkens statuten structuuronderlinge"
  },
  {

    "code": 88,
    "label": "Publiekrechtelijke rechtspersoon",
    "active": 1
  },
  {

    "code": 89,
    "label": "Privaatrechtelijke rechtspersoon"
  },
  {

    "code": 91,
    "label": "Buitenlandse rechtsvorm met hoofdvestiging in Nederland"
  },
  {

    "code": 92,
    "label": "Nevenvest. met hoofdvest. in buitenl."
  },
  {

    "code": 93,
    "label": "Europees economisch samenwerkingsverband"
  },
  {

    "code": 94,
    "label": "Buitenl. EG-venn. met onderneming in Nederland"
  },
  {

    "code": 95,
    "label": "Buitenl. EG-venn. met hoofdnederzetting in Nederland"
  },
  {

    "code": 96,
    "label": "Buitenl. op EG-venn. lijkende venn. met onderneming in Nederland"
  },
  {

    "code": 97,
    "label": "Buitenl. op EG-venn. lijkende venn. met hoofdnederzetting in Nederland"
  },
  {

    "code": 201,
    "label": "Coöperatie",
    "active": 1
  },
  {

    "code": 202,
    "label": "Vereniging",
    "active": 1
  }
]
