<?xml version="1.0" encoding="UTF-8" standalone="no"?>
<!DOCTYPE svg PUBLIC "-//W3C//DTD SVG 1.1//EN"
 "http://www.w3.org/Graphics/SVG/1.1/DTD/svg11.dtd">
<!-- Generated by graphviz version 2.43.0 (0)
 -->
<!-- Title: G Pages: 1 -->
<svg width="991pt" height="344pt"
 viewBox="0.00 0.00 991.00 344.00" xmlns="http://www.w3.org/2000/svg" xmlns:xlink="http://www.w3.org/1999/xlink">
<g id="graph0" class="graph" transform="scale(1 1) rotate(0) translate(4 340)">
<title>G</title>
<polygon fill="white" stroke="transparent" points="-4,4 -4,-340 987,-340 987,4 -4,4"/>
<g id="clust1" class="cluster">
<title>cluster_0</title>
<polygon fill="none" stroke="orange" points="34,-199 34,-328 288,-328 288,-199 34,-199"/>
<text text-anchor="middle" x="161" y="-312.8" font-family="Times,serif" font-size="14.00">perl&#45;api</text>
</g>
<g id="clust2" class="cluster">
<title>cluster_1</title>
<polygon fill="none" stroke="orange" points="8,-8 8,-191 314,-191 314,-8 8,-8"/>
<text text-anchor="middle" x="161" y="-175.8" font-family="Times,serif" font-size="14.00">perl&#45;api</text>
</g>
<g id="clust3" class="cluster">
<title>cluster_2</title>
<polygon fill="none" stroke="red" points="334,-113 334,-194 531,-194 531,-113 334,-113"/>
<text text-anchor="middle" x="432.5" y="-178.8" font-family="Times,serif" font-size="14.00">consumer&#45;notification</text>
</g>
<g id="clust4" class="cluster">
<title>cluster_3</title>
<polygon fill="none" stroke="blue" points="551,-116 551,-191 975,-191 975,-116 551,-116"/>
<text text-anchor="middle" x="763" y="-175.8" font-family="Times,serif" font-size="14.00">consumer&#45;communication</text>
</g>
<!-- legacy.DocumentCreated -->
<g id="node1" class="node">
<title>legacy.DocumentCreated</title>
<polygon fill="none" stroke="black" points="258,-297 64,-297 64,-261 258,-261 258,-297"/>
<text text-anchor="middle" x="161" y="-275.3" font-family="Times,serif" font-size="14.00">legacy.DocumentCreated</text>
</g>
<!-- AssigneeNotified -->
<g id="node6" class="node">
<title>AssigneeNotified</title>
<polygon fill="none" stroke="black" points="523,-163 342,-163 342,-121 523,-121 523,-163"/>
<text text-anchor="start" x="372" y="-148.8" font-family="Times,serif" font-size="14.00">AssigneeNotified</text>
<text text-anchor="start" x="388.5" y="-138" font-family="Times,serif" font-size="10.00">Process template</text>
<text text-anchor="start" x="350" y="-128" font-family="Times,serif" font-size="10.00">Check conditions for notification</text>
</g>
<!-- legacy.DocumentCreated&#45;&gt;AssigneeNotified -->
<g id="edge1" class="edge">
<title>legacy.DocumentCreated&#45;&gt;AssigneeNotified</title>
<path fill="none" stroke="black" d="M258.35,-270.51C277.44,-266.47 296.86,-260.58 314,-252 352.56,-232.7 387.32,-196.7 408.86,-171.15"/>
<polygon fill="black" stroke="black" points="411.71,-173.19 415.37,-163.25 406.31,-168.74 411.71,-173.19"/>
</g>
<!-- legacy.DocumentCopiedToCase -->
<g id="node2" class="node">
<title>legacy.DocumentCopiedToCase</title>
<polygon fill="none" stroke="black" points="280,-243 42,-243 42,-207 280,-207 280,-243"/>
<text text-anchor="middle" x="161" y="-221.3" font-family="Times,serif" font-size="14.00">legacy.DocumentCopiedToCase</text>
</g>
<!-- legacy.DocumentCopiedToCase&#45;&gt;AssigneeNotified -->
<g id="edge2" class="edge">
<title>legacy.DocumentCopiedToCase&#45;&gt;AssigneeNotified</title>
<path fill="none" stroke="black" d="M269.5,-206.98C284.58,-203.53 299.78,-199.54 314,-195 336.92,-187.68 361.32,-177.15 381.91,-167.41"/>
<polygon fill="black" stroke="black" points="383.58,-170.49 391.08,-163 380.55,-164.18 383.58,-170.49"/>
</g>
<!-- v2.DocumentCreated -->
<g id="node3" class="node">
<title>v2.DocumentCreated</title>
<polygon fill="none" stroke="black" points="245,-160 77,-160 77,-124 245,-124 245,-160"/>
<text text-anchor="middle" x="161" y="-138.3" font-family="Times,serif" font-size="14.00">v2.DocumentCreated</text>
</g>
<!-- v2.DocumentCreated&#45;&gt;AssigneeNotified -->
<g id="edge3" class="edge">
<title>v2.DocumentCreated&#45;&gt;AssigneeNotified</title>
<path fill="none" stroke="black" d="M245.06,-142C272.33,-142 302.93,-142 331.34,-142"/>
<polygon fill="black" stroke="black" points="331.69,-145.5 341.69,-142 331.69,-138.5 331.69,-145.5"/>
</g>
<!-- v2.DocumentAddedToCase -->
<g id="node4" class="node">
<title>v2.DocumentAddedToCase</title>
<polygon fill="none" stroke="black" points="264.5,-106 57.5,-106 57.5,-70 264.5,-70 264.5,-106"/>
<text text-anchor="middle" x="161" y="-84.3" font-family="Times,serif" font-size="14.00">v2.DocumentAddedToCase</text>
</g>
<!-- v2.DocumentAddedToCase&#45;&gt;AssigneeNotified -->
<g id="edge4" class="edge">
<title>v2.DocumentAddedToCase&#45;&gt;AssigneeNotified</title>
<path fill="none" stroke="black" d="M264.74,-105.53C281.24,-108.55 298.11,-111.77 314,-115 319.85,-116.19 325.85,-117.45 331.9,-118.75"/>
<polygon fill="black" stroke="black" points="331.59,-122.26 342.11,-120.97 333.08,-115.42 331.59,-122.26"/>
</g>
<!-- v2.DocumentFromAttachmentCreated -->
<g id="node5" class="node">
<title>v2.DocumentFromAttachmentCreated</title>
<polygon fill="none" stroke="black" points="306,-52 16,-52 16,-16 306,-16 306,-52"/>
<text text-anchor="middle" x="161" y="-30.3" font-family="Times,serif" font-size="14.00">v2.DocumentFromAttachmentCreated</text>
</g>
<!-- v2.DocumentFromAttachmentCreated&#45;&gt;AssigneeNotified -->
<g id="edge5" class="edge">
<title>v2.DocumentFromAttachmentCreated&#45;&gt;AssigneeNotified</title>
<path fill="none" stroke="black" d="M288.05,-52C296.96,-54.61 305.69,-57.59 314,-61 345.64,-73.99 377.32,-96.53 399.8,-114.53"/>
<polygon fill="black" stroke="black" points="397.69,-117.33 407.65,-120.94 402.12,-111.9 397.69,-117.33"/>
</g>
<!-- ExternalMessageCreated -->
<g id="node7" class="node">
<title>ExternalMessageCreated</title>
<polygon fill="none" stroke="black" points="757,-160 559,-160 559,-124 757,-124 757,-160"/>
<text text-anchor="middle" x="658" y="-138.3" font-family="Times,serif" font-size="14.00">ExternalMessageCreated</text>
</g>
<!-- AssigneeNotified&#45;&gt;ExternalMessageCreated -->
<g id="edge6" class="edge">
<title>AssigneeNotified&#45;&gt;ExternalMessageCreated</title>
<path fill="none" stroke="black" d="M523.12,-142C531.59,-142 540.23,-142 548.84,-142"/>
<polygon fill="black" stroke="black" points="548.93,-145.5 558.93,-142 548.93,-138.5 548.93,-145.5"/>
</g>
<!-- ExternalMessageSent -->
<g id="node8" class="node">
<title>ExternalMessageSent</title>
<polygon fill="none" stroke="black" points="967,-160 793,-160 793,-124 967,-124 967,-160"/>
<text text-anchor="middle" x="880" y="-138.3" font-family="Times,serif" font-size="14.00">ExternalMessageSent</text>
</g>
<!-- ExternalMessageCreated&#45;&gt;ExternalMessageSent -->
<g id="edge7" class="edge">
<title>ExternalMessageCreated&#45;&gt;ExternalMessageSent</title>
<path fill="none" stroke="black" d="M757.1,-142C765.57,-142 774.14,-142 782.59,-142"/>
<polygon fill="black" stroke="black" points="782.84,-145.5 792.84,-142 782.84,-138.5 782.84,-145.5"/>
</g>
</g>
</svg>
